<svg width="64" height="45" viewBox="0 0 64 45" fill="none" xmlns="http://www.w3.org/2000/svg">
<path fill-rule="evenodd" clip-rule="evenodd" d="M13.729 17.6372C13.1632 17.6518 12.6043 17.7052 12.0543 17.7933L9.04721 18.2748L10.8331 15.7884C11.4725 14.8982 12.1774 14.0589 12.9416 13.2778C14.9099 11.2536 17.2516 9.6478 19.8319 8.55411C22.0222 7.62571 24.3472 7.08219 26.7089 6.94362V1.30417C20.0908 1.62496 13.8043 4.45762 9.09279 9.28106C4.08629 14.4065 1.26829 21.3604 1.26316 28.6165L1.32709 30.6617V30.6818C1.32709 33.2661 2.07573 35.7907 3.47619 37.9365C4.8765 40.082 6.86481 41.7512 9.18744 42.7361C11.5099 43.7209 14.0643 43.9783 16.5284 43.4765C18.9927 42.9747 21.259 41.7355 23.0396 39.9126C24.8204 38.0895 26.0353 35.7644 26.5276 33.2303C27.02 30.6961 26.7671 28.0695 25.8018 25.6835C24.8364 23.2977 23.203 21.2617 21.111 19.8306C19.0192 18.3997 16.562 17.6372 14.0499 17.6372H13.729ZM0 28.6364C0 21.0415 2.94704 13.7578 8.19282 8.38739C13.1401 3.32262 19.7498 0.350968 26.7089 0.0291833C27.1287 0.00976853 27.5499 0 27.972 0V8.18182C27.9364 8.18172 27.9008 8.18172 27.8652 8.18182C25.2766 8.18894 22.7138 8.71412 20.3214 9.72817C17.8961 10.7562 15.6939 12.2662 13.8422 14.1709C13.5401 14.4795 13.248 14.7978 12.966 15.1253C12.5761 15.5782 12.2057 16.0487 11.8561 16.5354C12.4211 16.445 12.996 16.3877 13.5789 16.3676C13.734 16.3623 13.8897 16.3595 14.046 16.3595L14.0499 16.3636C16.8161 16.3636 19.5202 17.2034 21.8202 18.7767C24.1201 20.35 25.9128 22.5862 26.9713 25.2025C28.0299 27.8188 28.3069 30.6977 27.7672 33.4752C27.2276 36.2526 25.8955 38.8039 23.9396 40.8063C21.9836 42.8087 19.4915 44.1724 16.7785 44.7249C14.0655 45.2773 11.2533 44.9938 8.69773 43.9101C6.14212 42.8264 3.95781 40.9912 2.421 38.6366C0.884201 36.282 0.0639361 33.5137 0.0639361 30.6818L0 28.6364ZM49.5429 16.3677C49.2768 16.3768 49.0128 16.3937 48.7508 16.4179C48.4377 16.4469 48.1274 16.4862 47.8202 16.5354C48.1698 16.0487 48.5401 15.5783 48.93 15.1254C49.212 14.7978 49.5042 14.4795 49.8062 14.1709C51.6579 12.2662 53.8601 10.7562 56.2854 9.72817C58.6779 8.71412 61.2406 8.18894 63.8293 8.18182C63.8649 8.18172 63.9005 8.18172 63.9361 8.18182V0C63.5139 0 63.0928 0.00976853 62.6729 0.0291833C55.7138 0.350968 49.1041 3.32262 44.1569 8.38739C38.9111 13.7578 35.964 21.0415 35.964 28.6364L36.028 30.6818C36.028 33.5137 36.8482 36.282 38.385 38.6366C39.9218 40.9912 42.1062 42.8264 44.6618 43.9101C47.2174 44.9938 50.0295 45.2773 52.7425 44.7249C55.4555 44.1724 57.9476 42.8087 59.9036 40.8063C61.8596 38.8039 63.1916 36.2526 63.7313 33.4752C64.2709 30.6977 63.9939 27.8188 62.9354 25.2025C61.8768 22.5862 60.0842 20.35 57.7842 18.7767C55.4842 17.2034 52.7802 16.3636 50.014 16.3636V16.3595C49.9022 16.3595 49.7908 16.3609 49.6797 16.3636C49.634 16.3648 49.5884 16.3661 49.5429 16.3677ZM49.6954 17.6372C49.1271 17.6518 48.5682 17.7052 48.0183 17.7933L45.0112 18.2748L46.7971 15.7884C47.4365 14.8983 48.1413 14.059 48.9054 13.2781C50.8737 11.2538 53.2155 9.64785 55.7959 8.55411C57.9863 7.62571 60.3112 7.08219 62.6729 6.94362V1.30418C56.0548 1.62496 49.7684 4.45762 45.0568 9.28106C40.0503 14.4065 37.2323 21.3604 37.2272 28.6165L37.2911 30.6617V30.6818C37.2911 33.2661 38.0398 35.7907 39.4402 37.9365C40.8405 40.082 42.8288 41.7512 45.1515 42.7361C47.4739 43.7209 50.0283 43.9783 52.4924 43.4765C54.9567 42.9747 57.223 41.7355 59.0036 39.9126C60.7844 38.0895 61.9993 35.7644 62.4917 33.2303C62.9841 30.6961 62.7312 28.0695 61.7658 25.6835C60.8005 23.2977 59.167 21.2617 57.075 19.8306C54.9832 18.3997 52.526 17.6372 50.014 17.6372H49.6954Z" fill="#A5BF8B"/>
</svg>
