<svg width="235" height="67" viewBox="0 0 235 67" fill="none" xmlns="http://www.w3.org/2000/svg">
<g clip-path="url(#clip0)">
<path fill-rule="evenodd" clip-rule="evenodd" d="M40 56.3355C35.3416 56.3355 30.8693 55.1124 26.9421 52.8195C28.5189 50.6212 29.2917 47.9647 29.1322 45.2193C28.9491 42.0692 27.5612 39.1794 25.2243 37.0826C24.6907 36.6038 23.8735 36.6523 23.3992 37.1906C20.7527 40.1938 19.9067 44.1914 20.778 47.83C18.3824 45.2085 16.6107 42.2124 15.4631 39.036C17.9944 38.0246 20.0792 36.1732 21.403 33.7332C22.9048 30.9654 23.2485 27.773 22.3709 24.7443C22.2744 24.4123 22.0515 24.1322 21.7508 23.9662C21.4501 23.8 21.0964 23.7613 20.767 23.8583C17.7351 24.7528 15.3352 26.7852 13.8846 29.3588C13.9362 27.0728 14.2811 24.7927 14.9168 22.5807C15.7919 22.7869 16.6791 22.892 17.5645 22.892C19.285 22.892 20.9981 22.5043 22.5969 21.7348C25.4196 20.3761 27.5488 17.9897 28.5924 15.0151C28.8307 14.3361 28.4783 13.5906 27.8051 13.35C25.0269 12.3573 22.1203 12.492 19.5759 13.5143C20.1765 12.7562 20.8232 12.0231 21.519 11.321C22.0238 10.8115 22.0238 9.98546 21.519 9.47619C21.0141 8.96677 20.1954 8.96677 19.6907 9.47619C19.1604 10.0113 18.6556 10.5622 18.1756 11.1277C17.9591 7.69599 16.2722 4.38615 13.2857 2.2418C12.7038 1.82399 11.8967 1.96126 11.4828 2.54831C9.66961 5.11939 8.95727 8.24891 9.4766 11.3606C9.9522 14.2091 11.4106 16.7283 13.6081 18.5378C13.2767 19.3193 12.9809 20.1125 12.7208 20.9151C11.2241 17.7529 8.36009 15.2866 4.7161 14.4632C4.38187 14.3878 4.03088 14.4493 3.74128 14.6346C3.45168 14.82 3.24693 15.1136 3.17213 15.4513C1.81783 21.5553 5.43287 27.6313 11.3001 29.3652C11.2771 30.4903 11.3176 31.6161 11.4235 32.7372C8.92863 30.6092 5.57302 29.534 2.09767 30.0691C1.75872 30.1212 1.45434 30.3072 1.25112 30.586C1.04805 30.8649 0.963042 31.2137 1.01484 31.5555C1.89826 37.3934 6.89915 41.5868 12.5813 41.5868C12.9402 41.5868 13.3023 41.5679 13.6661 41.5338C14.0817 42.5002 14.5538 43.4473 15.0786 44.372C11.5899 43.4702 7.7355 44.1928 4.74185 46.6664C4.18931 47.1229 4.10842 47.9449 4.56072 48.5022C6.87249 51.3506 10.2374 52.8262 13.6292 52.8262C15.8729 52.8262 18.1277 52.1781 20.0967 50.8561C20.8085 51.5472 21.549 52.1976 22.3165 52.8051C18.8326 53.3014 15.6059 55.3668 13.7458 58.6897C13.5771 58.991 13.5339 59.3475 13.6257 59.6807C13.7176 60.0141 13.9368 60.2968 14.2354 60.4671C16.0166 61.4824 17.9842 62 19.9758 62C21.0284 62 22.0883 61.8554 23.1301 61.5628C25.7679 60.8227 28.0172 59.214 29.5686 56.9814C32.8494 58.2699 36.3728 58.9443 39.9993 58.9443L40 56.3355ZM11.2619 26.6005C7.57706 25.1426 5.23041 21.4085 5.49487 17.4237C9.17984 18.8817 11.5263 22.6156 11.2619 26.6005ZM3.88783 32.5421C4.46368 34.3978 5.60471 36.0156 7.18661 37.189C8.76852 38.3623 10.6393 38.9782 12.5664 38.979C11.3781 35.1688 7.8464 32.5495 3.88783 32.5421ZM25.5881 15.4392C23.695 15.0749 21.7432 15.3258 19.971 16.1789C18.1989 17.0319 16.7775 18.4049 15.8668 20.1188C19.7561 20.8611 23.7125 18.9569 25.5881 15.4392ZM12.8656 5.27326C11.9983 7.01011 11.7009 8.97323 12.0272 10.9273C12.3535 12.8812 13.272 14.6379 14.6553 15.9923C15.5225 14.2554 15.8199 12.2921 15.4936 10.3382C15.1674 8.38403 14.249 6.62766 12.8656 5.27326ZM16.0524 30.7771C15.1095 32.5149 14.7525 34.4677 15.007 36.395C18.5925 34.7014 20.6974 30.8221 20.1797 26.8621C18.4335 27.684 16.9952 29.0393 16.0524 30.7771ZM7.53227 47.874C10.9415 45.8454 15.3019 46.2835 18.2482 48.9505C14.8384 50.9789 10.4782 50.5408 7.53227 47.874ZM26.5518 45.3721C26.437 43.3944 25.7124 41.5482 24.4828 40.051C22.3348 43.4065 22.5914 47.8214 25.1131 50.9007C26.1611 49.2685 26.6669 47.35 26.5518 45.3721ZM16.779 58.7971C18.5812 59.4863 20.5464 59.58 22.4383 59.0496C24.3254 58.5201 25.9573 57.4198 27.1475 55.8967C27.1342 55.8899 27.1208 55.8831 27.1074 55.8763C27.0896 55.8673 27.0718 55.8583 27.054 55.8492C23.3749 54.4991 19.207 55.689 16.779 58.7971Z" fill="#A5BF8B" stroke="#E2E9DB"/>
</g>
<g clip-path="url(#clip1)">
<path fill-rule="evenodd" clip-rule="evenodd" d="M195 56.3355C199.658 56.3355 204.131 55.1124 208.058 52.8195C206.481 50.6212 205.708 47.9647 205.868 45.2193C206.051 42.0692 207.439 39.1794 209.776 37.0826C210.309 36.6038 211.126 36.6523 211.601 37.1906C214.247 40.1938 215.093 44.1914 214.222 47.83C216.618 45.2085 218.389 42.2124 219.537 39.036C217.006 38.0246 214.921 36.1732 213.597 33.7332C212.095 30.9654 211.752 27.773 212.629 24.7443C212.726 24.4123 212.948 24.1322 213.249 23.9662C213.55 23.8 213.904 23.7613 214.233 23.8583C217.265 24.7528 219.665 26.7852 221.115 29.3588C221.064 27.0728 220.719 24.7927 220.083 22.5807C219.208 22.7869 218.321 22.892 217.435 22.892C215.715 22.892 214.002 22.5043 212.403 21.7348C209.58 20.3761 207.451 17.9897 206.408 15.0151C206.169 14.3361 206.522 13.5906 207.195 13.35C209.973 12.3573 212.88 12.492 215.424 13.5143C214.823 12.7562 214.177 12.0231 213.481 11.321C212.976 10.8115 212.976 9.98546 213.481 9.47619C213.986 8.96677 214.805 8.96677 215.309 9.47619C215.84 10.0113 216.344 10.5622 216.824 11.1277C217.041 7.69599 218.728 4.38615 221.714 2.2418C222.296 1.82399 223.103 1.96126 223.517 2.54831C225.33 5.11939 226.043 8.24891 225.523 11.3606C225.048 14.2091 223.589 16.7283 221.392 18.5378C221.723 19.3193 222.019 20.1125 222.279 20.9151C223.776 17.7529 226.64 15.2866 230.284 14.4632C230.618 14.3878 230.969 14.4493 231.259 14.6346C231.548 14.82 231.753 15.1136 231.828 15.4513C233.182 21.5553 229.567 27.6313 223.7 29.3652C223.723 30.4903 223.682 31.6161 223.576 32.7372C226.071 30.6092 229.427 29.534 232.902 30.0691C233.241 30.1212 233.546 30.3072 233.749 30.586C233.952 30.8649 234.037 31.2137 233.985 31.5555C233.102 37.3934 228.101 41.5868 222.419 41.5868C222.06 41.5868 221.698 41.5679 221.334 41.5338C220.918 42.5002 220.446 43.4473 219.921 44.372C223.41 43.4702 227.265 44.1928 230.258 46.6664C230.811 47.1229 230.892 47.9449 230.439 48.5022C228.128 51.3506 224.763 52.8262 221.371 52.8262C219.127 52.8262 216.872 52.1781 214.903 50.8561C214.192 51.5472 213.451 52.1976 212.684 52.8051C216.167 53.3014 219.394 55.3668 221.254 58.6897C221.423 58.991 221.466 59.3475 221.374 59.6807C221.282 60.0141 221.063 60.2968 220.765 60.4671C218.983 61.4824 217.016 62 215.024 62C213.972 62 212.912 61.8554 211.87 61.5628C209.232 60.8227 206.983 59.214 205.431 56.9814C202.151 58.2699 198.627 58.9443 195.001 58.9443L195 56.3355ZM223.738 26.6005C227.423 25.1426 229.77 21.4085 229.505 17.4237C225.82 18.8817 223.474 22.6156 223.738 26.6005ZM231.112 32.5421C230.536 34.3978 229.395 36.0156 227.813 37.189C226.231 38.3623 224.361 38.9782 222.434 38.979C223.622 35.1688 227.154 32.5495 231.112 32.5421ZM209.412 15.4392C211.305 15.0749 213.257 15.3258 215.029 16.1789C216.801 17.0319 218.222 18.4049 219.133 20.1188C215.244 20.8611 211.287 18.9569 209.412 15.4392ZM222.134 5.27326C223.002 7.01011 223.299 8.97323 222.973 10.9273C222.646 12.8812 221.728 14.6379 220.345 15.9923C219.477 14.2554 219.18 12.2921 219.506 10.3382C219.833 8.38403 220.751 6.62766 222.134 5.27326ZM218.948 30.7771C219.89 32.5149 220.248 34.4677 219.993 36.395C216.407 34.7014 214.303 30.8221 214.82 26.8621C216.567 27.684 218.005 29.0393 218.948 30.7771ZM227.468 47.874C224.058 45.8454 219.698 46.2835 216.752 48.9505C220.162 50.9789 224.522 50.5408 227.468 47.874ZM208.448 45.3721C208.563 43.3944 209.288 41.5482 210.517 40.051C212.665 43.4065 212.409 47.8214 209.887 50.9007C208.839 49.2685 208.333 47.35 208.448 45.3721ZM218.221 58.7971C216.419 59.4863 214.454 59.58 212.562 59.0496C210.675 58.5201 209.043 57.4198 207.853 55.8967C207.866 55.8899 207.879 55.8831 207.893 55.8763C207.91 55.8673 207.928 55.8583 207.946 55.8492C211.625 54.4991 215.793 55.689 218.221 58.7971Z" fill="#A5BF8B" stroke="#E2E9DB"/>
</g>
<defs>
<clipPath id="clip0">
<rect width="40" height="67" fill="white"/>
</clipPath>
<clipPath id="clip1">
<rect width="40" height="67" transform="matrix(-1 0 0 1 235 0)" fill="white"/>
</clipPath>
</defs>
</svg>
