<svg width="1800" height="289" viewBox="0 0 1800 289" fill="none" xmlns="http://www.w3.org/2000/svg">
<g clip-path="url(#clip0)">
<mask id="path-2-outside-1" maskUnits="userSpaceOnUse" x="411" y="-6" width="1437" height="295" fill="black">
<rect fill="white" x="411" y="-6" width="1437" height="295"/>
<path d="M586.722 216.28H414V210.376C419.795 210.002 424.468 209.346 428.02 208.409C431.758 207.471 434.562 205.972 436.431 203.911C438.488 201.849 439.89 199.038 440.637 195.477C441.385 191.916 441.759 187.324 441.759 181.701V38.8881C441.759 33.2656 441.385 28.6738 440.637 25.1128C440.076 21.5519 438.768 18.7406 436.712 16.679C434.656 14.6174 431.758 13.118 428.02 12.1809C424.468 11.2438 419.795 10.5879 414 10.213V3.74708H583.918L584.478 49.8521H576.908C575.412 42.5428 573.73 36.7328 571.861 32.4222C569.992 27.9241 567.281 24.4569 563.729 22.0204C560.365 19.584 555.785 17.9909 549.99 17.2412C544.382 16.4916 537.092 16.1167 528.12 16.1167H484.939C480.64 16.1167 477.742 16.7727 476.247 18.0846C474.939 19.3966 474.284 22.3953 474.284 27.0807V98.2062H523.353C529.895 98.2062 535.223 97.8314 539.335 97.0817C543.448 96.332 546.719 94.9264 549.149 92.8648C551.766 90.6158 553.729 87.5233 555.037 83.5875C556.346 79.6518 557.561 74.404 558.682 67.8444H566.253V142.343H558.682C557.561 135.596 556.346 130.255 555.037 126.319C553.729 122.196 551.859 119.103 549.429 117.042C546.999 114.793 543.728 113.293 539.616 112.544C535.503 111.794 530.082 111.419 523.353 111.419H474.284V190.697C474.284 193.884 474.471 196.226 474.845 197.726C475.219 199.225 475.873 200.35 476.808 201.099C478.303 202.036 481.855 202.88 487.463 203.629C493.258 204.192 500.08 204.473 507.931 204.473H516.904C528.307 204.473 537.84 203.911 545.504 202.786C553.355 201.661 559.991 199.506 565.412 196.32C571.02 193.134 575.88 188.823 579.992 183.388C584.105 177.953 588.124 170.831 592.049 162.022H601.302L586.722 216.28ZM694.673 211.782C699.907 211.407 703.271 210.751 704.767 209.814C706.449 208.69 707.29 206.722 707.29 203.911C707.29 202.786 707.103 201.755 706.729 200.818C706.356 199.881 705.795 198.85 705.047 197.726L676.167 153.307L651.212 192.665C648.782 196.226 647.006 199.038 645.884 201.099C644.95 203.161 644.482 204.66 644.482 205.597C644.482 207.659 645.417 209.252 647.286 210.376C649.156 211.314 652.52 211.782 657.38 211.782V216.28H610.835V211.782C613.452 211.595 615.695 211.22 617.565 210.658C619.434 210.095 621.21 209.252 622.892 208.127C624.575 207.003 626.257 205.504 627.939 203.629C629.809 201.568 631.865 198.85 634.108 195.477L670.839 142.343L640.557 95.9572C637.94 92.2088 635.603 89.1164 633.547 86.68C631.678 84.2435 629.809 82.2756 627.939 80.7763C626.257 79.2769 624.481 78.2461 622.612 77.6839C620.742 77.1216 618.593 76.8405 616.163 76.8405H612.798V71.7802H679.251V76.8405C674.391 77.0279 670.839 77.5901 668.596 78.5272C666.54 79.4643 665.512 81.2448 665.512 83.8687C665.512 85.9303 666.82 89.4912 669.437 94.5516C672.054 99.6119 675.699 105.516 680.373 112.263C681.12 113.387 681.868 114.512 682.616 115.636C683.363 116.573 684.111 117.698 684.859 119.01C686.354 116.761 687.85 114.512 689.345 112.263C691.027 109.826 692.803 107.296 694.673 104.672C698.411 99.4245 701.215 95.2075 703.084 92.0214C705.141 88.6479 706.169 85.9303 706.169 83.8687C706.169 81.8071 705.234 80.214 703.365 79.0895C701.682 77.965 698.411 77.2153 693.551 76.8405V71.7802H744.022V76.8405C738.788 77.0279 733.927 78.3398 729.441 80.7763C724.955 83.0253 721.216 86.3988 718.225 90.8969L691.588 129.411L732.245 192.103C737.105 199.6 741.498 204.754 745.424 207.565C749.536 210.376 754.022 211.782 758.882 211.782V216.28H694.673V211.782ZM768.416 84.9932C772.902 83.6813 777.014 82.463 780.753 81.3385C784.492 80.0266 788.137 78.7147 791.688 77.4027C795.24 76.0908 798.792 74.7789 802.343 73.4669C806.082 71.9676 810.101 70.3745 814.4 68.6877L816.363 69.25V93.9893C823.466 84.9932 830.663 78.5272 837.953 74.5914C845.43 70.6556 853.655 68.6877 862.627 68.6877C870.292 68.6877 877.395 70.3745 883.937 73.7481C890.48 77.1216 896.088 81.9008 900.761 88.0856C905.621 94.083 909.359 101.299 911.976 109.732C914.78 117.979 916.182 127.069 916.182 137.002C916.182 148.622 914.407 159.492 910.855 169.613C907.49 179.546 902.724 188.261 896.555 195.758C890.573 203.067 883.47 208.877 875.245 213.188C867.02 217.311 858.141 219.373 848.608 219.373C845.243 219.373 842.159 219.091 839.355 218.529C836.738 218.154 834.214 217.405 831.784 216.28C829.354 215.343 826.831 214.031 824.214 212.344C821.784 210.47 819.167 208.221 816.363 205.597V256.2C816.363 261.261 816.737 265.29 817.484 268.289C818.232 271.475 819.634 273.911 821.69 275.598C823.746 277.472 826.55 278.691 830.102 279.253C833.841 280.003 838.701 280.377 844.682 280.377V286H767.014V280.659C771.687 280.096 775.519 279.44 778.51 278.691C781.501 277.941 783.837 276.723 785.52 275.036C787.202 273.349 788.324 271.194 788.884 268.57C789.445 265.946 789.725 262.573 789.725 258.449V108.327C789.725 100.643 788.884 95.6761 787.202 93.427C785.52 90.9906 781.968 89.7724 776.547 89.7724C775.052 89.7724 773.65 89.7724 772.341 89.7724C771.22 89.7724 769.911 89.8661 768.416 90.0535V84.9932ZM816.363 188.167C816.363 190.604 817.391 193.04 819.447 195.477C821.503 197.913 824.12 200.162 827.298 202.224C830.476 204.285 834.027 205.972 837.953 207.284C842.065 208.596 845.991 209.252 849.729 209.252C855.524 209.252 860.758 207.846 865.431 205.035C870.292 202.036 874.404 198.007 877.769 192.947C881.133 187.699 883.75 181.42 885.62 174.111C887.489 166.802 888.424 158.743 888.424 149.934C888.424 140.563 887.489 132.035 885.62 124.351C883.75 116.667 881.04 110.201 877.488 104.953C874.124 99.5182 870.011 95.3949 865.151 92.5837C860.291 89.585 854.87 88.0856 848.888 88.0856C845.15 88.0856 841.318 88.7416 837.392 90.0535C833.654 91.3654 830.195 93.0522 827.018 95.1138C823.84 97.1754 821.223 99.4245 819.167 101.861C817.297 104.297 816.363 106.734 816.363 109.17V188.167ZM1061.43 165.958C1054.7 183.576 1045.54 196.882 1033.95 205.878C1022.54 214.875 1009.09 219.373 993.571 219.373C984.411 219.373 976.093 217.686 968.616 214.312C961.326 210.939 955.063 206.16 949.829 199.975C944.595 193.79 940.576 186.293 937.773 177.484C934.969 168.676 933.567 158.743 933.567 147.685C933.567 135.877 935.156 125.101 938.333 115.355C941.698 105.609 946.278 97.2691 952.073 90.3346C958.054 83.2127 965.158 77.6839 973.382 73.7481C981.607 69.8123 990.673 67.8444 1000.58 67.8444C1008.99 67.8444 1016.66 69.4374 1023.57 72.6235C1030.68 75.8097 1036.66 80.3077 1041.52 86.1177C1043.57 88.7416 1045.26 91.3654 1046.56 93.9893C1048.06 96.6132 1049.28 99.5182 1050.21 102.704C1051.33 105.89 1052.27 109.451 1053.01 113.387C1053.76 117.323 1054.51 121.821 1055.26 126.881H956.839C957.213 137.189 958.054 145.717 959.363 152.464C960.858 159.024 963.195 165.396 966.373 171.581C975.532 188.823 988.991 197.445 1006.75 197.445C1017.03 197.445 1025.91 194.914 1033.39 189.854C1041.05 184.794 1048.71 176.173 1056.38 163.99L1061.43 165.958ZM1022.73 116.198C1020.68 102.329 1017.31 92.7711 1012.64 87.5233C1008.15 82.0882 1001.05 79.3706 991.327 79.3706C981.42 79.3706 973.663 82.2756 968.055 88.0856C962.634 93.8956 959.082 103.267 957.4 116.198H1022.73ZM1070.12 86.3988C1074.79 84.7121 1079.09 83.2127 1083.02 81.9008C1086.94 80.4014 1090.68 78.9958 1094.23 77.6839C1097.97 76.1845 1101.62 74.7789 1105.17 73.4669C1108.91 71.9676 1112.92 70.3745 1117.22 68.6877L1119.19 69.25V98.7685C1123.11 92.9585 1126.66 88.1793 1129.84 84.4309C1133.02 80.4951 1136.1 77.4027 1139.09 75.1537C1142.08 72.7173 1144.98 71.0305 1147.79 70.0934C1150.78 69.1563 1153.95 68.6877 1157.32 68.6877C1162.74 68.6877 1167.04 70.2808 1170.22 73.4669C1173.4 76.4656 1174.98 80.4951 1174.98 85.5555C1174.98 90.2409 1173.86 93.8956 1171.62 96.5195C1169.38 98.9559 1166.39 100.174 1162.65 100.174C1160.59 100.174 1158.53 99.7993 1156.48 99.0496C1154.61 98.1125 1152.37 96.332 1149.75 93.7082C1148.07 92.2088 1146.48 91.0843 1144.98 90.3346C1143.49 89.585 1142.27 89.2101 1141.34 89.2101C1139.09 89.2101 1136.66 90.1472 1134.05 92.0214C1131.62 93.7082 1129.28 95.8635 1127.04 98.4874C1124.79 101.111 1122.92 103.923 1121.43 106.921C1119.93 109.92 1119.19 112.731 1119.19 115.355V187.605C1119.19 192.103 1119.56 195.852 1120.31 198.85C1121.06 201.849 1122.46 204.285 1124.51 206.16C1126.57 207.846 1129.37 209.158 1132.93 210.095C1136.48 211.032 1140.96 211.595 1146.38 211.782V216.28H1069.28V211.782C1074.32 210.845 1078.34 209.908 1081.33 208.971C1084.51 207.846 1086.85 206.534 1088.34 205.035C1090.03 203.536 1091.05 201.568 1091.43 199.131C1091.99 196.507 1092.27 193.228 1092.27 189.292V109.17C1092.27 102.048 1091.43 97.0817 1089.75 94.2704C1088.06 91.2717 1085.26 89.7724 1081.33 89.7724C1079.28 89.7724 1077.41 89.8661 1075.73 90.0535C1074.23 90.2409 1072.36 90.6158 1070.12 91.178V86.3988ZM1231.9 69.5311V183.669C1231.9 189.479 1232.09 194.165 1232.46 197.726C1233.03 201.099 1234.15 203.817 1235.83 205.878C1237.51 207.753 1239.85 209.065 1242.84 209.814C1246.02 210.564 1250.32 211.22 1255.74 211.782V216.28H1179.75V211.782C1185.36 211.407 1189.75 210.845 1192.93 210.095C1196.29 209.158 1198.82 207.753 1200.5 205.878C1202.37 203.817 1203.58 201.099 1204.15 197.726C1204.71 194.165 1204.99 189.479 1204.99 183.669V109.17C1204.99 102.048 1204.15 97.0817 1202.46 94.2704C1200.97 91.2717 1198.35 89.7724 1194.61 89.7724C1193.12 89.7724 1191.34 89.8661 1189.28 90.0535C1187.42 90.2409 1185.45 90.522 1183.4 90.8969L1181.15 91.178V86.3988L1230.5 68.6877L1231.9 69.5311ZM1215.92 -3C1220.41 -3 1224.24 -1.31323 1227.42 2.06031C1230.6 5.24643 1232.18 9.08852 1232.18 13.5866C1232.18 18.272 1230.6 22.2078 1227.42 25.394C1224.43 28.3927 1220.5 29.892 1215.64 29.892C1210.97 29.892 1207.14 28.3927 1204.15 25.394C1201.15 22.2078 1199.66 18.272 1199.66 13.5866C1199.66 9.08852 1201.25 5.24643 1204.43 2.06031C1207.6 -1.31323 1211.44 -3 1215.92 -3ZM1399.58 165.958C1392.85 183.576 1383.69 196.882 1372.1 205.878C1360.7 214.875 1347.24 219.373 1331.72 219.373C1322.56 219.373 1314.25 217.686 1306.77 214.312C1299.48 210.939 1293.22 206.16 1287.98 199.975C1282.75 193.79 1278.73 186.293 1275.93 177.484C1273.12 168.676 1271.72 158.743 1271.72 147.685C1271.72 135.877 1273.31 125.101 1276.49 115.355C1279.85 105.609 1284.43 97.2691 1290.23 90.3346C1296.21 83.2127 1303.31 77.6839 1311.54 73.7481C1319.76 69.8123 1328.83 67.8444 1338.73 67.8444C1347.15 67.8444 1354.81 69.4374 1361.73 72.6235C1368.83 75.8097 1374.81 80.3077 1379.67 86.1177C1381.73 88.7416 1383.41 91.3654 1384.72 93.9893C1386.21 96.6132 1387.43 99.5182 1388.36 102.704C1389.48 105.89 1390.42 109.451 1391.17 113.387C1391.91 117.323 1392.66 121.821 1393.41 126.881H1294.99C1295.37 137.189 1296.21 145.717 1297.52 152.464C1299.01 159.024 1301.35 165.396 1304.53 171.581C1313.68 188.823 1327.14 197.445 1344.9 197.445C1355.18 197.445 1364.06 194.914 1371.54 189.854C1379.2 184.794 1386.87 176.173 1394.53 163.99L1399.58 165.958ZM1360.88 116.198C1358.83 102.329 1355.46 92.7711 1350.79 87.5233C1346.3 82.0882 1339.2 79.3706 1329.48 79.3706C1319.57 79.3706 1311.82 82.2756 1306.21 88.0856C1300.79 93.8956 1297.24 103.267 1295.55 116.198H1360.88ZM1411.07 83.0253C1419.86 80.5888 1427.43 78.3398 1433.79 76.2782C1440.33 74.2166 1447.43 71.6864 1455.1 68.6877L1457.62 69.25V94.8327C1463.04 89.7724 1467.81 85.5555 1471.92 82.1819C1476.03 78.8084 1479.77 76.1845 1483.14 74.3103C1486.69 72.2487 1490.05 70.8431 1493.23 70.0934C1496.59 69.1563 1500.15 68.6877 1503.88 68.6877C1515.66 68.6877 1524.91 72.9047 1531.64 81.3385C1538.37 89.7724 1541.74 101.58 1541.74 116.761V190.416C1541.74 198.101 1543.05 203.348 1545.66 206.16C1548.28 208.971 1553.42 210.845 1561.08 211.782V216.28H1494.63V211.782C1498.56 211.407 1501.83 210.751 1504.45 209.814C1507.06 208.877 1509.12 207.378 1510.61 205.316C1512.3 203.255 1513.42 200.537 1513.98 197.163C1514.54 193.79 1514.82 189.573 1514.82 184.513V117.323C1514.82 96.7069 1507.06 86.3988 1491.55 86.3988C1488.93 86.3988 1486.41 86.68 1483.98 87.2422C1481.55 87.8045 1479.02 88.7416 1476.41 90.0535C1473.98 91.3654 1471.27 93.2396 1468.27 95.6761C1465.47 98.1125 1462.11 101.111 1458.18 104.672V194.914C1458.18 200.724 1459.68 204.848 1462.67 207.284C1465.66 209.533 1471.27 211.032 1479.49 211.782V216.28H1411.64V211.782C1415.75 211.407 1419.02 210.845 1421.45 210.095C1424.07 209.158 1426.12 207.753 1427.62 205.878C1429.11 204.004 1430.14 201.661 1430.7 198.85C1431.26 195.852 1431.54 192.103 1431.54 187.605V107.765C1431.54 99.893 1430.7 94.5516 1429.02 91.7403C1427.34 88.7416 1424.25 87.2422 1419.77 87.2422C1416.4 87.2422 1413.5 87.7108 1411.07 88.6479V83.0253ZM1697.92 169.051C1695.3 174.111 1692.87 178.515 1690.63 182.264C1688.57 185.825 1686.51 189.104 1684.46 192.103C1682.59 194.914 1680.62 197.445 1678.57 199.694C1676.51 201.943 1674.27 204.004 1671.84 205.878C1660.62 214.875 1648.19 219.373 1634.55 219.373C1625.76 219.373 1617.63 217.686 1610.15 214.312C1602.68 210.751 1596.23 205.785 1590.81 199.412C1585.57 193.04 1581.46 185.543 1578.47 176.922C1575.48 168.301 1573.98 158.743 1573.98 148.247C1573.98 134.94 1576.23 122.758 1580.71 111.7C1585.39 100.455 1592.02 91.2717 1600.62 84.1498C1607.16 78.7147 1614.08 74.6852 1621.37 72.0613C1628.85 69.25 1636.42 67.8444 1644.08 67.8444C1650.81 67.8444 1657.17 68.7815 1663.15 70.6556C1669.13 72.3424 1674.36 74.6852 1678.85 77.6839C1683.34 80.6826 1686.89 84.2435 1689.5 88.3667C1692.12 92.3025 1693.43 96.5195 1693.43 101.018C1693.43 104.766 1691.93 108.046 1688.94 110.857C1686.14 113.668 1682.68 115.074 1678.57 115.074C1674.83 115.074 1671.65 113.668 1669.04 110.857C1666.42 108.046 1664.46 104.297 1663.15 99.6119L1661.18 92.5837C1659.69 86.5863 1657.54 82.5567 1654.74 80.4951C1652.12 78.4335 1647.91 77.4027 1642.12 77.4027C1635.58 77.4027 1629.59 78.8084 1624.17 81.6197C1618.94 84.2435 1614.45 88.0856 1610.71 93.1459C1606.98 98.2062 1603.98 104.204 1601.74 111.138C1599.68 118.073 1598.66 125.757 1598.66 134.191C1598.66 143.187 1599.87 151.527 1602.3 159.211C1604.73 166.895 1608.1 173.455 1612.4 178.89C1616.7 184.325 1621.84 188.636 1627.82 191.822C1633.99 194.821 1640.72 196.32 1648.01 196.32C1657.17 196.32 1665.11 194.165 1671.84 189.854C1678.57 185.356 1685.77 177.484 1693.43 166.239L1697.92 169.051ZM1844 165.958C1837.27 183.576 1828.11 196.882 1816.52 205.878C1805.12 214.875 1791.66 219.373 1776.15 219.373C1766.99 219.373 1758.67 217.686 1751.19 214.312C1743.9 210.939 1737.64 206.16 1732.4 199.975C1727.17 193.79 1723.15 186.293 1720.35 177.484C1717.54 168.676 1716.14 158.743 1716.14 147.685C1716.14 135.877 1717.73 125.101 1720.91 115.355C1724.27 105.609 1728.85 97.2691 1734.65 90.3346C1740.63 83.2127 1747.73 77.6839 1755.96 73.7481C1764.18 69.8123 1773.25 67.8444 1783.15 67.8444C1791.57 67.8444 1799.23 69.4374 1806.15 72.6235C1813.25 75.8097 1819.23 80.3077 1824.09 86.1177C1826.15 88.7416 1827.83 91.3654 1829.14 93.9893C1830.63 96.6132 1831.85 99.5182 1832.78 102.704C1833.91 105.89 1834.84 109.451 1835.59 113.387C1836.34 117.323 1837.08 121.821 1837.83 126.881H1739.41C1739.79 137.189 1740.63 145.717 1741.94 152.464C1743.43 159.024 1745.77 165.396 1748.95 171.581C1758.11 188.823 1771.57 197.445 1789.32 197.445C1799.6 197.445 1808.48 194.914 1815.96 189.854C1823.62 184.794 1831.29 176.173 1838.95 163.99L1844 165.958ZM1805.31 116.198C1803.25 102.329 1799.89 92.7711 1795.21 87.5233C1790.73 82.0882 1783.62 79.3706 1773.9 79.3706C1763.99 79.3706 1756.24 82.2756 1750.63 88.0856C1745.21 93.8956 1741.66 103.267 1739.97 116.198H1805.31Z"/>
</mask>
<path d="M586.722 216.28H414V210.376C419.795 210.002 424.468 209.346 428.02 208.409C431.758 207.471 434.562 205.972 436.431 203.911C438.488 201.849 439.89 199.038 440.637 195.477C441.385 191.916 441.759 187.324 441.759 181.701V38.8881C441.759 33.2656 441.385 28.6738 440.637 25.1128C440.076 21.5519 438.768 18.7406 436.712 16.679C434.656 14.6174 431.758 13.118 428.02 12.1809C424.468 11.2438 419.795 10.5879 414 10.213V3.74708H583.918L584.478 49.8521H576.908C575.412 42.5428 573.73 36.7328 571.861 32.4222C569.992 27.9241 567.281 24.4569 563.729 22.0204C560.365 19.584 555.785 17.9909 549.99 17.2412C544.382 16.4916 537.092 16.1167 528.12 16.1167H484.939C480.64 16.1167 477.742 16.7727 476.247 18.0846C474.939 19.3966 474.284 22.3953 474.284 27.0807V98.2062H523.353C529.895 98.2062 535.223 97.8314 539.335 97.0817C543.448 96.332 546.719 94.9264 549.149 92.8648C551.766 90.6158 553.729 87.5233 555.037 83.5875C556.346 79.6518 557.561 74.404 558.682 67.8444H566.253V142.343H558.682C557.561 135.596 556.346 130.255 555.037 126.319C553.729 122.196 551.859 119.103 549.429 117.042C546.999 114.793 543.728 113.293 539.616 112.544C535.503 111.794 530.082 111.419 523.353 111.419H474.284V190.697C474.284 193.884 474.471 196.226 474.845 197.726C475.219 199.225 475.873 200.35 476.808 201.099C478.303 202.036 481.855 202.88 487.463 203.629C493.258 204.192 500.08 204.473 507.931 204.473H516.904C528.307 204.473 537.84 203.911 545.504 202.786C553.355 201.661 559.991 199.506 565.412 196.32C571.02 193.134 575.88 188.823 579.992 183.388C584.105 177.953 588.124 170.831 592.049 162.022H601.302L586.722 216.28ZM694.673 211.782C699.907 211.407 703.271 210.751 704.767 209.814C706.449 208.69 707.29 206.722 707.29 203.911C707.29 202.786 707.103 201.755 706.729 200.818C706.356 199.881 705.795 198.85 705.047 197.726L676.167 153.307L651.212 192.665C648.782 196.226 647.006 199.038 645.884 201.099C644.95 203.161 644.482 204.66 644.482 205.597C644.482 207.659 645.417 209.252 647.286 210.376C649.156 211.314 652.52 211.782 657.38 211.782V216.28H610.835V211.782C613.452 211.595 615.695 211.22 617.565 210.658C619.434 210.095 621.21 209.252 622.892 208.127C624.575 207.003 626.257 205.504 627.939 203.629C629.809 201.568 631.865 198.85 634.108 195.477L670.839 142.343L640.557 95.9572C637.94 92.2088 635.603 89.1164 633.547 86.68C631.678 84.2435 629.809 82.2756 627.939 80.7763C626.257 79.2769 624.481 78.2461 622.612 77.6839C620.742 77.1216 618.593 76.8405 616.163 76.8405H612.798V71.7802H679.251V76.8405C674.391 77.0279 670.839 77.5901 668.596 78.5272C666.54 79.4643 665.512 81.2448 665.512 83.8687C665.512 85.9303 666.82 89.4912 669.437 94.5516C672.054 99.6119 675.699 105.516 680.373 112.263C681.12 113.387 681.868 114.512 682.616 115.636C683.363 116.573 684.111 117.698 684.859 119.01C686.354 116.761 687.85 114.512 689.345 112.263C691.027 109.826 692.803 107.296 694.673 104.672C698.411 99.4245 701.215 95.2075 703.084 92.0214C705.141 88.6479 706.169 85.9303 706.169 83.8687C706.169 81.8071 705.234 80.214 703.365 79.0895C701.682 77.965 698.411 77.2153 693.551 76.8405V71.7802H744.022V76.8405C738.788 77.0279 733.927 78.3398 729.441 80.7763C724.955 83.0253 721.216 86.3988 718.225 90.8969L691.588 129.411L732.245 192.103C737.105 199.6 741.498 204.754 745.424 207.565C749.536 210.376 754.022 211.782 758.882 211.782V216.28H694.673V211.782ZM768.416 84.9932C772.902 83.6813 777.014 82.463 780.753 81.3385C784.492 80.0266 788.137 78.7147 791.688 77.4027C795.24 76.0908 798.792 74.7789 802.343 73.4669C806.082 71.9676 810.101 70.3745 814.4 68.6877L816.363 69.25V93.9893C823.466 84.9932 830.663 78.5272 837.953 74.5914C845.43 70.6556 853.655 68.6877 862.627 68.6877C870.292 68.6877 877.395 70.3745 883.937 73.7481C890.48 77.1216 896.088 81.9008 900.761 88.0856C905.621 94.083 909.359 101.299 911.976 109.732C914.78 117.979 916.182 127.069 916.182 137.002C916.182 148.622 914.407 159.492 910.855 169.613C907.49 179.546 902.724 188.261 896.555 195.758C890.573 203.067 883.47 208.877 875.245 213.188C867.02 217.311 858.141 219.373 848.608 219.373C845.243 219.373 842.159 219.091 839.355 218.529C836.738 218.154 834.214 217.405 831.784 216.28C829.354 215.343 826.831 214.031 824.214 212.344C821.784 210.47 819.167 208.221 816.363 205.597V256.2C816.363 261.261 816.737 265.29 817.484 268.289C818.232 271.475 819.634 273.911 821.69 275.598C823.746 277.472 826.55 278.691 830.102 279.253C833.841 280.003 838.701 280.377 844.682 280.377V286H767.014V280.659C771.687 280.096 775.519 279.44 778.51 278.691C781.501 277.941 783.837 276.723 785.52 275.036C787.202 273.349 788.324 271.194 788.884 268.57C789.445 265.946 789.725 262.573 789.725 258.449V108.327C789.725 100.643 788.884 95.6761 787.202 93.427C785.52 90.9906 781.968 89.7724 776.547 89.7724C775.052 89.7724 773.65 89.7724 772.341 89.7724C771.22 89.7724 769.911 89.8661 768.416 90.0535V84.9932ZM816.363 188.167C816.363 190.604 817.391 193.04 819.447 195.477C821.503 197.913 824.12 200.162 827.298 202.224C830.476 204.285 834.027 205.972 837.953 207.284C842.065 208.596 845.991 209.252 849.729 209.252C855.524 209.252 860.758 207.846 865.431 205.035C870.292 202.036 874.404 198.007 877.769 192.947C881.133 187.699 883.75 181.42 885.62 174.111C887.489 166.802 888.424 158.743 888.424 149.934C888.424 140.563 887.489 132.035 885.62 124.351C883.75 116.667 881.04 110.201 877.488 104.953C874.124 99.5182 870.011 95.3949 865.151 92.5837C860.291 89.585 854.87 88.0856 848.888 88.0856C845.15 88.0856 841.318 88.7416 837.392 90.0535C833.654 91.3654 830.195 93.0522 827.018 95.1138C823.84 97.1754 821.223 99.4245 819.167 101.861C817.297 104.297 816.363 106.734 816.363 109.17V188.167ZM1061.43 165.958C1054.7 183.576 1045.54 196.882 1033.95 205.878C1022.54 214.875 1009.09 219.373 993.571 219.373C984.411 219.373 976.093 217.686 968.616 214.312C961.326 210.939 955.063 206.16 949.829 199.975C944.595 193.79 940.576 186.293 937.773 177.484C934.969 168.676 933.567 158.743 933.567 147.685C933.567 135.877 935.156 125.101 938.333 115.355C941.698 105.609 946.278 97.2691 952.073 90.3346C958.054 83.2127 965.158 77.6839 973.382 73.7481C981.607 69.8123 990.673 67.8444 1000.58 67.8444C1008.99 67.8444 1016.66 69.4374 1023.57 72.6235C1030.68 75.8097 1036.66 80.3077 1041.52 86.1177C1043.57 88.7416 1045.26 91.3654 1046.56 93.9893C1048.06 96.6132 1049.28 99.5182 1050.21 102.704C1051.33 105.89 1052.27 109.451 1053.01 113.387C1053.76 117.323 1054.51 121.821 1055.26 126.881H956.839C957.213 137.189 958.054 145.717 959.363 152.464C960.858 159.024 963.195 165.396 966.373 171.581C975.532 188.823 988.991 197.445 1006.75 197.445C1017.03 197.445 1025.91 194.914 1033.39 189.854C1041.05 184.794 1048.71 176.173 1056.38 163.99L1061.43 165.958ZM1022.73 116.198C1020.68 102.329 1017.31 92.7711 1012.64 87.5233C1008.15 82.0882 1001.05 79.3706 991.327 79.3706C981.42 79.3706 973.663 82.2756 968.055 88.0856C962.634 93.8956 959.082 103.267 957.4 116.198H1022.73ZM1070.12 86.3988C1074.79 84.7121 1079.09 83.2127 1083.02 81.9008C1086.94 80.4014 1090.68 78.9958 1094.23 77.6839C1097.97 76.1845 1101.62 74.7789 1105.17 73.4669C1108.91 71.9676 1112.92 70.3745 1117.22 68.6877L1119.19 69.25V98.7685C1123.11 92.9585 1126.66 88.1793 1129.84 84.4309C1133.02 80.4951 1136.1 77.4027 1139.09 75.1537C1142.08 72.7173 1144.98 71.0305 1147.79 70.0934C1150.78 69.1563 1153.95 68.6877 1157.32 68.6877C1162.74 68.6877 1167.04 70.2808 1170.22 73.4669C1173.4 76.4656 1174.98 80.4951 1174.98 85.5555C1174.98 90.2409 1173.86 93.8956 1171.62 96.5195C1169.38 98.9559 1166.39 100.174 1162.65 100.174C1160.59 100.174 1158.53 99.7993 1156.48 99.0496C1154.61 98.1125 1152.37 96.332 1149.75 93.7082C1148.07 92.2088 1146.48 91.0843 1144.98 90.3346C1143.49 89.585 1142.27 89.2101 1141.34 89.2101C1139.09 89.2101 1136.66 90.1472 1134.05 92.0214C1131.62 93.7082 1129.28 95.8635 1127.04 98.4874C1124.79 101.111 1122.92 103.923 1121.43 106.921C1119.93 109.92 1119.19 112.731 1119.19 115.355V187.605C1119.19 192.103 1119.56 195.852 1120.31 198.85C1121.06 201.849 1122.46 204.285 1124.51 206.16C1126.57 207.846 1129.37 209.158 1132.93 210.095C1136.48 211.032 1140.96 211.595 1146.38 211.782V216.28H1069.28V211.782C1074.32 210.845 1078.34 209.908 1081.33 208.971C1084.51 207.846 1086.85 206.534 1088.34 205.035C1090.03 203.536 1091.05 201.568 1091.43 199.131C1091.99 196.507 1092.27 193.228 1092.27 189.292V109.17C1092.27 102.048 1091.43 97.0817 1089.75 94.2704C1088.06 91.2717 1085.26 89.7724 1081.33 89.7724C1079.28 89.7724 1077.41 89.8661 1075.73 90.0535C1074.23 90.2409 1072.36 90.6158 1070.12 91.178V86.3988ZM1231.9 69.5311V183.669C1231.9 189.479 1232.09 194.165 1232.46 197.726C1233.03 201.099 1234.15 203.817 1235.83 205.878C1237.51 207.753 1239.85 209.065 1242.84 209.814C1246.02 210.564 1250.32 211.22 1255.74 211.782V216.28H1179.75V211.782C1185.36 211.407 1189.75 210.845 1192.93 210.095C1196.29 209.158 1198.82 207.753 1200.5 205.878C1202.37 203.817 1203.58 201.099 1204.15 197.726C1204.71 194.165 1204.99 189.479 1204.99 183.669V109.17C1204.99 102.048 1204.15 97.0817 1202.46 94.2704C1200.97 91.2717 1198.35 89.7724 1194.61 89.7724C1193.12 89.7724 1191.34 89.8661 1189.28 90.0535C1187.42 90.2409 1185.45 90.522 1183.4 90.8969L1181.15 91.178V86.3988L1230.5 68.6877L1231.9 69.5311ZM1215.92 -3C1220.41 -3 1224.24 -1.31323 1227.42 2.06031C1230.6 5.24643 1232.18 9.08852 1232.18 13.5866C1232.18 18.272 1230.6 22.2078 1227.42 25.394C1224.43 28.3927 1220.5 29.892 1215.64 29.892C1210.97 29.892 1207.14 28.3927 1204.15 25.394C1201.15 22.2078 1199.66 18.272 1199.66 13.5866C1199.66 9.08852 1201.25 5.24643 1204.43 2.06031C1207.6 -1.31323 1211.44 -3 1215.92 -3ZM1399.58 165.958C1392.85 183.576 1383.69 196.882 1372.1 205.878C1360.7 214.875 1347.24 219.373 1331.72 219.373C1322.56 219.373 1314.25 217.686 1306.77 214.312C1299.48 210.939 1293.22 206.16 1287.98 199.975C1282.75 193.79 1278.73 186.293 1275.93 177.484C1273.12 168.676 1271.72 158.743 1271.72 147.685C1271.72 135.877 1273.31 125.101 1276.49 115.355C1279.85 105.609 1284.43 97.2691 1290.23 90.3346C1296.21 83.2127 1303.31 77.6839 1311.54 73.7481C1319.76 69.8123 1328.83 67.8444 1338.73 67.8444C1347.15 67.8444 1354.81 69.4374 1361.73 72.6235C1368.83 75.8097 1374.81 80.3077 1379.67 86.1177C1381.73 88.7416 1383.41 91.3654 1384.72 93.9893C1386.21 96.6132 1387.43 99.5182 1388.36 102.704C1389.48 105.89 1390.42 109.451 1391.17 113.387C1391.91 117.323 1392.66 121.821 1393.41 126.881H1294.99C1295.37 137.189 1296.21 145.717 1297.52 152.464C1299.01 159.024 1301.35 165.396 1304.53 171.581C1313.68 188.823 1327.14 197.445 1344.9 197.445C1355.18 197.445 1364.06 194.914 1371.54 189.854C1379.2 184.794 1386.87 176.173 1394.53 163.99L1399.58 165.958ZM1360.88 116.198C1358.83 102.329 1355.46 92.7711 1350.79 87.5233C1346.3 82.0882 1339.2 79.3706 1329.48 79.3706C1319.57 79.3706 1311.82 82.2756 1306.21 88.0856C1300.79 93.8956 1297.24 103.267 1295.55 116.198H1360.88ZM1411.07 83.0253C1419.86 80.5888 1427.43 78.3398 1433.79 76.2782C1440.33 74.2166 1447.43 71.6864 1455.1 68.6877L1457.62 69.25V94.8327C1463.04 89.7724 1467.81 85.5555 1471.92 82.1819C1476.03 78.8084 1479.77 76.1845 1483.14 74.3103C1486.69 72.2487 1490.05 70.8431 1493.23 70.0934C1496.59 69.1563 1500.15 68.6877 1503.88 68.6877C1515.66 68.6877 1524.91 72.9047 1531.64 81.3385C1538.37 89.7724 1541.74 101.58 1541.74 116.761V190.416C1541.74 198.101 1543.05 203.348 1545.66 206.16C1548.28 208.971 1553.42 210.845 1561.08 211.782V216.28H1494.63V211.782C1498.56 211.407 1501.83 210.751 1504.45 209.814C1507.06 208.877 1509.12 207.378 1510.61 205.316C1512.3 203.255 1513.42 200.537 1513.98 197.163C1514.54 193.79 1514.82 189.573 1514.82 184.513V117.323C1514.82 96.7069 1507.06 86.3988 1491.55 86.3988C1488.93 86.3988 1486.41 86.68 1483.98 87.2422C1481.55 87.8045 1479.02 88.7416 1476.41 90.0535C1473.98 91.3654 1471.27 93.2396 1468.27 95.6761C1465.47 98.1125 1462.11 101.111 1458.18 104.672V194.914C1458.18 200.724 1459.68 204.848 1462.67 207.284C1465.66 209.533 1471.27 211.032 1479.49 211.782V216.28H1411.64V211.782C1415.75 211.407 1419.02 210.845 1421.45 210.095C1424.07 209.158 1426.12 207.753 1427.62 205.878C1429.11 204.004 1430.14 201.661 1430.7 198.85C1431.26 195.852 1431.54 192.103 1431.54 187.605V107.765C1431.54 99.893 1430.7 94.5516 1429.02 91.7403C1427.34 88.7416 1424.25 87.2422 1419.77 87.2422C1416.4 87.2422 1413.5 87.7108 1411.07 88.6479V83.0253ZM1697.92 169.051C1695.3 174.111 1692.87 178.515 1690.63 182.264C1688.57 185.825 1686.51 189.104 1684.46 192.103C1682.59 194.914 1680.62 197.445 1678.57 199.694C1676.51 201.943 1674.27 204.004 1671.84 205.878C1660.62 214.875 1648.19 219.373 1634.55 219.373C1625.76 219.373 1617.63 217.686 1610.15 214.312C1602.68 210.751 1596.23 205.785 1590.81 199.412C1585.57 193.04 1581.46 185.543 1578.47 176.922C1575.48 168.301 1573.98 158.743 1573.98 148.247C1573.98 134.94 1576.23 122.758 1580.71 111.7C1585.39 100.455 1592.02 91.2717 1600.62 84.1498C1607.16 78.7147 1614.08 74.6852 1621.37 72.0613C1628.85 69.25 1636.42 67.8444 1644.08 67.8444C1650.81 67.8444 1657.17 68.7815 1663.15 70.6556C1669.13 72.3424 1674.36 74.6852 1678.85 77.6839C1683.34 80.6826 1686.89 84.2435 1689.5 88.3667C1692.12 92.3025 1693.43 96.5195 1693.43 101.018C1693.43 104.766 1691.93 108.046 1688.94 110.857C1686.14 113.668 1682.68 115.074 1678.57 115.074C1674.83 115.074 1671.65 113.668 1669.04 110.857C1666.42 108.046 1664.46 104.297 1663.15 99.6119L1661.18 92.5837C1659.69 86.5863 1657.54 82.5567 1654.74 80.4951C1652.12 78.4335 1647.91 77.4027 1642.12 77.4027C1635.58 77.4027 1629.59 78.8084 1624.17 81.6197C1618.94 84.2435 1614.45 88.0856 1610.71 93.1459C1606.98 98.2062 1603.98 104.204 1601.74 111.138C1599.68 118.073 1598.66 125.757 1598.66 134.191C1598.66 143.187 1599.87 151.527 1602.3 159.211C1604.73 166.895 1608.1 173.455 1612.4 178.89C1616.7 184.325 1621.84 188.636 1627.82 191.822C1633.99 194.821 1640.72 196.32 1648.01 196.32C1657.17 196.32 1665.11 194.165 1671.84 189.854C1678.57 185.356 1685.77 177.484 1693.43 166.239L1697.92 169.051ZM1844 165.958C1837.27 183.576 1828.11 196.882 1816.52 205.878C1805.12 214.875 1791.66 219.373 1776.15 219.373C1766.99 219.373 1758.67 217.686 1751.19 214.312C1743.9 210.939 1737.64 206.16 1732.4 199.975C1727.17 193.79 1723.15 186.293 1720.35 177.484C1717.54 168.676 1716.14 158.743 1716.14 147.685C1716.14 135.877 1717.73 125.101 1720.91 115.355C1724.27 105.609 1728.85 97.2691 1734.65 90.3346C1740.63 83.2127 1747.73 77.6839 1755.96 73.7481C1764.18 69.8123 1773.25 67.8444 1783.15 67.8444C1791.57 67.8444 1799.23 69.4374 1806.15 72.6235C1813.25 75.8097 1819.23 80.3077 1824.09 86.1177C1826.15 88.7416 1827.83 91.3654 1829.14 93.9893C1830.63 96.6132 1831.85 99.5182 1832.78 102.704C1833.91 105.89 1834.84 109.451 1835.59 113.387C1836.34 117.323 1837.08 121.821 1837.83 126.881H1739.41C1739.79 137.189 1740.63 145.717 1741.94 152.464C1743.43 159.024 1745.77 165.396 1748.95 171.581C1758.11 188.823 1771.57 197.445 1789.32 197.445C1799.6 197.445 1808.48 194.914 1815.96 189.854C1823.62 184.794 1831.29 176.173 1838.95 163.99L1844 165.958ZM1805.31 116.198C1803.25 102.329 1799.89 92.7711 1795.21 87.5233C1790.73 82.0882 1783.62 79.3706 1773.9 79.3706C1763.99 79.3706 1756.24 82.2756 1750.63 88.0856C1745.21 93.8956 1741.66 103.267 1739.97 116.198H1805.31Z" stroke="#D5DDCD" stroke-width="6" mask="url(#path-2-outside-1)"/>
</g>
<defs>
<clipPath id="clip0">
<rect width="1800" height="289" fill="white"/>
</clipPath>
</defs>
</svg>
