<svg width="54" height="54" viewBox="0 0 54 54" fill="none" xmlns="http://www.w3.org/2000/svg">
<circle cx="27" cy="27" r="26.5" fill="#F1F3EF" stroke="#C1CAB7"/>
<path d="M38.7999 25.8125L27.3124 37.3C25.9051 38.7073 23.9964 39.4979 22.0061 39.4979C20.0159 39.4979 18.1072 38.7073 16.6999 37.3C15.2926 35.8927 14.502 33.984 14.502 31.9937C14.502 30.0035 15.2926 28.0948 16.6999 26.6875L28.1874 15.2C29.1256 14.2618 30.3981 13.7347 31.7249 13.7347C33.0517 13.7347 34.3242 14.2618 35.2624 15.2C36.2006 16.1382 36.7277 17.4107 36.7277 18.7375C36.7277 20.0643 36.2006 21.3368 35.2624 22.275L23.7624 33.7625C23.2933 34.2316 22.657 34.4951 21.9936 34.4951C21.3302 34.4951 20.694 34.2316 20.2249 33.7625C19.7558 33.2934 19.4922 32.6571 19.4922 31.9937C19.4922 31.3303 19.7558 30.6941 20.2249 30.225L30.8374 19.625" stroke="#A5BF8B" stroke-width="1.5" stroke-linecap="round" stroke-linejoin="round"/>
</svg>
