<svg width="101" height="42" viewBox="0 0 101 42" fill="none" xmlns="http://www.w3.org/2000/svg">
<path fill-rule="evenodd" clip-rule="evenodd" d="M58.2635 28.2246C57.4966 27.885 56.6671 27.71 55.8284 27.7107C54.8368 27.7107 53.913 27.9431 53.0523 28.4056C52.1939 28.8681 51.534 29.48 51.0727 30.2415C50.6114 31.0018 50.3813 31.8719 50.3813 32.8518C50.3813 34.3654 50.8882 35.6057 51.8996 36.5739C52.9121 37.5409 54.212 38.0256 55.8004 38.0256C56.6623 38.0256 57.4284 37.8878 58.1011 37.6145C58.7715 37.3412 59.4851 36.8495 60.2395 36.1429L58.921 34.8197C58.3604 35.3546 57.8465 35.7225 57.3793 35.9257C56.9122 36.1277 56.3971 36.2293 55.8319 36.2293C55.2036 36.2373 54.5833 36.0879 54.0275 35.7949C53.5042 35.5227 53.0686 35.1081 52.7708 34.599C52.4753 34.0909 52.327 33.5093 52.327 32.8553C52.327 31.9151 52.661 31.1245 53.3302 30.4821C53.9983 29.8409 54.8217 29.5198 55.798 29.5198C56.9542 29.5198 57.996 29.9904 58.921 30.9306L60.2816 29.6844C59.7224 29.0575 59.0339 28.5594 58.2635 28.2246V28.2246ZM62.1374 31.316C61.2708 32.0728 60.8375 33.0188 60.8375 34.154C60.8375 35.2121 61.2217 36.1125 61.9879 36.8542C62.754 37.5946 63.679 37.9648 64.7628 37.9648C65.4986 37.9648 66.1736 37.7967 66.7844 37.4615C67.3854 37.1354 67.8861 36.6517 68.2326 36.0623C68.5877 35.4667 68.7652 34.8244 68.7652 34.14C68.7652 33.4591 68.5888 32.8249 68.2373 32.2363C67.8826 31.6468 67.3744 31.1648 66.7669 30.8418C66.1512 30.5022 65.459 30.3253 64.7558 30.3279C63.7701 30.3279 62.8965 30.6573 62.1374 31.316V31.316ZM66.2729 32.6275C66.6606 33.0176 66.8545 33.5233 66.8545 34.1458C66.8545 34.7695 66.656 35.2787 66.2624 35.6758C65.8688 36.0717 65.3748 36.269 64.7803 36.269C64.187 36.269 63.6965 36.074 63.3088 35.6828C62.921 35.2903 62.7272 34.7788 62.7272 34.147C62.7272 33.5327 62.9234 33.0281 63.3158 32.6345C63.7082 32.241 64.1987 32.0436 64.7873 32.0436C65.3911 32.0436 65.8852 32.2386 66.2729 32.6275V32.6275ZM69.536 37.778H71.4327V27.7107H69.5372V37.778H69.536ZM72.3787 37.778H74.2754V27.7107H72.3787V37.778ZM83.0089 34.3268C83.0089 33.1251 82.6352 32.158 81.8901 31.4258C81.1449 30.6947 80.1767 30.3279 78.9867 30.3279C77.8655 30.3279 76.9335 30.6947 76.1895 31.4258C75.4468 32.158 75.0754 33.0783 75.0754 34.1867C75.0754 35.2682 75.4479 36.1686 76.193 36.8869C76.9393 37.6063 77.904 37.9648 79.0894 37.9648C79.8544 37.9648 80.5143 37.8352 81.0702 37.5748C81.6421 37.3011 82.1348 36.8863 82.502 36.3695L80.9032 35.6489C80.4118 36.1176 79.7556 36.3739 79.0766 36.3625C78.4833 36.3625 77.9963 36.2107 77.6144 35.9058C77.2312 35.5997 76.9789 35.1591 76.909 34.6737H83.0019L83.0089 34.3268V34.3268ZM76.9919 33.2383C77.2056 32.7887 77.438 32.4757 77.688 32.297C78.0947 32.0101 78.5825 31.8607 79.0801 31.8707C79.5671 31.8707 79.9946 31.9969 80.3648 32.2503C80.7327 32.5049 80.9803 32.8343 81.1052 33.2383H76.9919V33.2383ZM89.5538 31.316C89.2139 30.996 88.8196 30.7394 88.3894 30.558C87.9967 30.4035 87.5781 30.3254 87.1561 30.3279C86.2611 30.314 85.397 30.655 84.7526 31.2763C84.0121 31.9747 83.6407 32.8997 83.6407 34.0535C83.6407 35.1303 83.9911 36.0203 84.6907 36.7234C85.3903 37.4264 86.2463 37.778 87.2601 37.778C87.7237 37.778 88.1383 37.7079 88.505 37.5678C88.8706 37.4276 89.2198 37.1975 89.5538 36.8775C89.5538 37.465 89.4896 37.8784 89.3623 38.119C89.235 38.3596 89.0166 38.5546 88.7059 38.7065C88.3953 38.8583 87.9853 38.933 87.4761 38.933C87.1248 38.9404 86.7748 38.8875 86.4414 38.7765C86.1678 38.6841 85.9217 38.5247 85.7254 38.3129H83.6349C83.8007 38.8069 84.0577 39.2262 84.4057 39.5707C84.7526 39.9152 85.1789 40.178 85.6834 40.3555C86.1891 40.533 86.8116 40.623 87.552 40.623C88.9418 40.623 89.9813 40.2306 90.6715 39.4469C91.1854 38.8688 91.4423 37.9648 91.4423 36.7374V30.5148H89.555V31.316H89.5538ZM89.075 32.5972C89.4592 32.9756 89.6507 33.4684 89.6507 34.0734C89.6507 34.6877 89.4592 35.1829 89.0785 35.5613C88.6954 35.9397 88.2107 36.1289 87.6221 36.1289C87.0195 36.1289 86.5196 35.9362 86.1214 35.5485C85.7231 35.1619 85.5246 34.6655 85.5246 34.0594C85.5246 33.4766 85.7184 32.9931 86.1085 32.6077C86.4962 32.2223 86.9903 32.0307 87.5871 32.0307C88.1944 32.0307 88.6896 32.2199 89.0738 32.5972H89.075ZM100.228 34.3268C100.228 33.1251 99.8559 32.158 99.1107 31.4258C98.3644 30.6947 97.3963 30.3279 96.2062 30.3279C95.085 30.3279 94.153 30.6947 93.4102 31.4258C92.6663 32.158 92.2949 33.0783 92.2949 34.1867C92.2949 35.2682 92.6686 36.1686 93.4137 36.8869C94.1588 37.6063 95.1247 37.9648 96.3101 37.9648C97.0751 37.9648 97.735 37.8352 98.2909 37.5748C98.8624 37.301 99.3547 36.8862 99.7215 36.3695L98.1239 35.6489C97.6322 36.1179 96.9755 36.3742 96.2961 36.3625C95.704 36.3625 95.2158 36.2107 94.8339 35.9058C94.4509 35.5996 94.1987 35.1591 94.1285 34.6737H100.221L100.228 34.3268V34.3268ZM94.2126 33.2383C94.4263 32.7887 94.6575 32.4757 94.9086 32.297C95.315 32.0104 95.8024 31.8611 96.2996 31.8707C96.7866 31.8707 97.2152 31.9969 97.5843 32.2503C97.9533 32.5049 98.1998 32.8343 98.3247 33.2383H94.2126ZM50.7048 20.2513V21.9214H53.3034V24.4184H55.04V21.9214H57.6386V20.2513H55.04V17.7485H53.3034V20.2525H50.7048V20.2513ZM63.1429 16.6168C62.3375 17.0564 61.6642 17.7031 61.1925 18.4901C60.7218 19.2712 60.4764 20.1674 60.4836 21.0793C60.4836 22.4808 60.9917 23.6919 62.0066 24.7115C63.0215 25.7311 64.2956 26.2403 65.8303 26.2403C67.2936 26.2403 68.5398 25.7439 69.5676 24.7512C70.593 23.7585 71.1068 22.5462 71.1068 21.1132C71.1068 19.6674 70.586 18.4411 69.5454 17.4343C68.5059 16.4288 67.2621 15.9254 65.8163 15.9254C64.8609 15.9254 63.971 16.1567 63.1429 16.6168V16.6168ZM68.1801 18.726C68.8341 19.3742 69.1611 20.1649 69.1611 21.1004C69.1611 22.0394 68.8364 22.8289 68.1871 23.47C67.8798 23.7815 67.5124 24.0272 67.1073 24.1924C66.7022 24.3577 66.2677 24.4389 65.8303 24.4312C65.0432 24.441 64.2768 24.179 63.6603 23.6896C62.8486 23.0589 62.4434 22.1994 62.4434 21.1132C62.4434 20.138 62.7645 19.3357 63.4092 18.7027C64.0539 18.072 64.8492 17.7555 65.7952 17.7555C66.7319 17.7555 67.5272 18.079 68.1801 18.726ZM72.5772 18.7295H71.6044V20.2992H72.5772V25.9927H74.4739V20.2992H75.5986V18.7295H74.4739V16.0527H72.5772V18.7295ZM76.2631 25.9939H78.1598V15.9266H76.2631V25.9939ZM86.8922 22.5404C86.8922 21.3386 86.5184 20.3716 85.7733 19.6393C85.027 18.9082 84.0588 18.5415 82.8688 18.5415C81.7476 18.5415 80.8156 18.9082 80.0728 19.6393C79.3288 20.3716 78.9575 21.2919 78.9575 22.4002C78.9575 23.4817 79.3312 24.3822 80.0763 25.1004C80.8214 25.8199 81.7873 26.1796 82.9727 26.1796C83.7377 26.1796 84.3975 26.0488 84.9535 25.7883C85.5248 25.5143 86.0171 25.0996 86.3841 24.583L84.7864 23.8625C84.2952 24.3316 83.639 24.5884 82.9598 24.5772C82.3666 24.5772 81.8795 24.4254 81.4965 24.1194C81.1137 23.8131 80.8619 23.3725 80.7922 22.8873H86.884L86.8922 22.5404V22.5404ZM80.8752 21.4531C81.0889 21.0023 81.3201 20.6893 81.5712 20.5106C81.9779 20.2236 82.4657 20.0742 82.9634 20.0843C83.4504 20.0843 83.8778 20.2104 84.2469 20.465C84.6159 20.7185 84.8624 21.0478 84.9885 21.4531H80.8752V21.4531ZM89.743 25.4496L88.1897 28.6497H90.1471L94.8818 18.7284H92.9384L90.7719 23.2867L88.8075 18.7284H86.87L89.743 25.4496V25.4496ZM51.0271 14.0813H56.6062V12.2454H52.9589V9.66196H56.6062V7.86574H52.9589V6.09053H56.6062V4.26043H51.0271V14.0813ZM63.22 7.61814C62.9032 7.30314 62.529 7.05179 62.1175 6.87769C61.7126 6.71145 61.2787 6.62729 60.841 6.6301C59.8553 6.6301 59.0179 6.98864 58.3289 7.70457C57.6398 8.42166 57.2941 9.34079 57.2941 10.4631C57.2941 11.5446 57.6503 12.4486 58.3627 13.1762C59.0751 13.9038 59.9195 14.2682 60.8971 14.2682C61.3304 14.2682 61.7345 14.1934 62.107 14.0439C62.4796 13.8956 62.851 13.6515 63.2212 13.3128V14.0813H65.1178V6.81696H63.2212V7.61814H63.22ZM62.7166 8.90049C63.1091 9.29174 63.3053 9.80445 63.3053 10.4363C63.3053 11.081 63.1091 11.6042 62.7166 12.0013C62.3242 12.3995 61.8302 12.5992 61.2346 12.5992C60.6576 12.5992 60.1718 12.3972 59.777 11.9919C59.3823 11.5867 59.1861 11.0693 59.1861 10.4421C59.1861 9.81963 59.3788 9.30926 59.7665 8.91101C60.1543 8.51275 60.6425 8.31304 61.2276 8.31304C61.8279 8.31304 62.3254 8.50925 62.7166 8.90049ZM69.9927 6.94076C69.56 6.73376 69.086 6.62755 68.6064 6.6301C67.8881 6.6301 67.2983 6.83448 66.8382 7.24091C66.378 7.64967 66.1468 8.14019 66.1468 8.71363C66.1468 9.60357 66.7588 10.3452 67.9804 10.9361L68.6204 11.2433C69.1716 11.5119 69.4473 11.784 69.4473 12.0643C69.4473 12.2162 69.3702 12.3493 69.2183 12.4649C69.0654 12.5817 68.8633 12.6401 68.6134 12.6401C68.3821 12.6401 68.117 12.5619 67.8192 12.4089C67.5232 12.2578 67.2579 12.0531 67.0367 11.8051L65.8688 13.0267C66.5275 13.8547 67.4069 14.2682 68.5083 14.2682C69.3375 14.2682 69.9997 14.0521 70.4937 13.62C70.9865 13.1879 71.233 12.6506 71.233 12.0048C71.233 11.5201 71.0963 11.0973 70.823 10.7364C70.5498 10.3756 70.0464 10.0217 69.3153 9.67481L68.6204 9.34079C68.3191 9.19831 68.1299 9.08619 68.0539 9.00327C67.9824 8.93199 67.9413 8.83566 67.9395 8.73465C67.9395 8.60502 68.0002 8.4964 68.1205 8.40998C68.2408 8.32355 68.4078 8.27917 68.6204 8.27917C69.0093 8.27917 69.4426 8.50691 69.9203 8.96006L71.094 7.83187C70.8022 7.45224 70.4248 7.14692 69.9927 6.94076V6.94076ZM72.5293 6.81696H71.5565V8.38662H72.5293V14.0813H74.4248V8.38545H75.5507V6.81696H74.4248V4.14014H72.5293V6.81696V6.81696ZM76.9265 7.61814C76.0611 8.37494 75.6278 9.32094 75.6278 10.4561C75.6278 11.5154 76.0108 12.4159 76.7782 13.1563C77.5443 13.8979 78.4693 14.2682 79.5531 14.2682C80.2889 14.2682 80.9639 14.1 81.5747 13.7636C82.1754 13.4378 82.6761 12.9545 83.0229 12.3657C83.3728 11.7852 83.5566 11.1199 83.5543 10.4421C83.5543 9.76124 83.3791 9.12707 83.0264 8.53961C82.672 7.95028 82.1642 7.46829 81.5572 7.14514C80.9415 6.80556 80.2493 6.62869 79.5461 6.63127C78.5592 6.63127 77.6868 6.96061 76.9265 7.61814V7.61814ZM81.0632 8.93086C81.4509 9.31977 81.6448 9.82664 81.6448 10.4491C81.6448 11.0728 81.4463 11.582 81.0527 11.9791C80.6579 12.3738 80.1651 12.5724 79.5706 12.5724C78.9761 12.5724 78.4856 12.3762 78.0991 11.9849C77.7113 11.5925 77.5174 11.081 77.5174 10.4491C77.5174 9.83481 77.7136 9.33145 78.1061 8.9367C78.4973 8.54312 78.9878 8.34691 79.5776 8.34691C80.1803 8.34691 80.6754 8.54078 81.0632 8.93086V8.93086ZM84.3917 14.0813H86.2895V11.1674C86.2895 10.4118 86.3164 9.92007 86.3713 9.6935C86.4787 9.25787 86.6691 8.91684 86.9436 8.66925C87.2192 8.42399 87.5485 8.29903 87.9316 8.29903C88.2271 8.29903 88.4758 8.37377 88.6767 8.52326C88.8776 8.67159 89.0189 8.88882 89.0995 9.17378C89.1813 9.45758 89.221 10.0334 89.221 10.8999V14.0813H91.0966V9.28123C91.0966 8.44501 90.877 7.81201 90.4379 7.38456C90.186 7.13819 89.8874 6.94457 89.5598 6.81502C89.2321 6.68547 88.8818 6.6226 88.5296 6.6301C88.164 6.6301 87.8078 6.699 87.4586 6.83448C87.1082 6.97112 86.7193 7.21288 86.2895 7.56208V6.81696H84.3929V14.0813H84.3917ZM17.1172 25.2815H34.1498V16.8819H17.1172V25.2815Z" fill="#B9C4AE"/>
<path fill-rule="evenodd" clip-rule="evenodd" d="M8.51749 16.8002V8.4007H42.5851V0H0V42H42.5851V33.6005H8.51749V16.8002Z" fill="#B9C4AE"/>
<path fill-rule="evenodd" clip-rule="evenodd" d="M8.39746 33.4815H42.4651V8.28174H8.39746V33.4815ZM16.9138 25.082H33.9488V16.6824H16.9138V25.082Z" fill="#98A58B"/>
</svg>
