<svg width="145" height="53" viewBox="0 0 145 53" fill="none" xmlns="http://www.w3.org/2000/svg">
<path d="M18.8637 46.0651V49.3131H3.27344V46.0651C3.27344 46.0651 5.87182 46.0651 6.52141 44.766V10.3374C6.52141 10.3374 6.52141 8.38866 3.27344 8.38866V5.79028H18.8637V8.38866C18.8637 8.38866 14.9661 9.03826 14.9661 10.3374V23.3293C14.9661 23.3293 21.4621 17.483 27.958 17.483V9.03826C26.9336 8.59404 25.8265 8.37262 24.7101 8.38866V5.79028H40.3003V8.38866C40.3003 8.38866 37.0524 7.73907 36.4028 9.03826V22.6797C37.7466 24.4714 39.5265 25.8895 41.5731 26.7991C43.6197 27.7087 45.865 28.0796 48.0955 27.8765C48.0955 27.8765 45.4971 32.4237 36.4028 32.4237V44.766C36.4028 44.766 38.3515 46.7147 40.3003 46.7147V49.3131H24.7101V46.0651C24.7101 46.0651 27.3084 46.0651 27.958 44.766V29.8253C27.958 29.8253 24.0605 26.5773 20.8125 25.9277C20.8125 25.9277 15.6157 26.5773 14.9661 27.8765V44.766C14.9661 44.766 15.6157 46.0651 18.8637 46.0651Z" fill="#B9C4AE"/>
<path d="M9.76953 29.8252C9.76953 29.8252 15.6159 23.9789 16.9151 23.3293C17.7267 22.9346 18.6116 22.7134 19.5134 22.6797C19.5134 22.6797 13.0175 29.1756 9.76953 29.8252Z" fill="#F5F5F5"/>
<path d="M20.1631 21.3807C21.4655 20.2158 23.056 19.4207 24.7694 19.078C26.4828 18.7354 28.2567 18.8575 29.907 19.4319C35.7534 21.3807 35.7534 25.9278 39.6509 27.227C43.5485 28.5262 44.1981 27.8766 44.1981 27.8766C42.5778 28.6362 40.7587 28.8636 39.0013 28.5262C36.4029 27.8766 31.3101 24.4792 28.6078 22.6799C26.659 21.3807 20.1631 21.3807 20.1631 21.3807Z" fill="#F5F5F5"/>
<path d="M19.5137 24.6287C19.5137 24.6287 22.7616 21.3807 26.6592 23.3295C31.856 25.9279 32.5056 27.8766 35.7535 29.1758C38.8261 30.4036 40.9503 29.8254 40.9503 29.8254C40.9503 29.8254 37.7023 31.7287 35.1039 31.1246C32.4131 30.4964 29.9434 29.1492 27.9584 27.227C26.8179 26.2161 25.4742 25.4612 24.0175 25.013C22.5609 24.5648 21.0252 24.4337 19.5137 24.6287V24.6287Z" fill="#F5F5F5"/>
<path d="M38.0334 44.4414V34.0869C38.0359 34.0629 38.0461 34.0405 38.0625 34.0229C38.0789 34.0053 38.1006 33.9936 38.1243 33.9894C49.2649 32.2095 50.8174 27.7793 51.0058 26.9803C51.0101 26.965 51.0106 26.9488 51.0073 26.9333C51.0039 26.9177 50.9968 26.9032 50.9866 26.891C50.9763 26.8789 50.9632 26.8694 50.9485 26.8634C50.9337 26.8575 50.9177 26.8552 50.9019 26.8569C44.1201 26.7724 38.605 22.0759 38.0789 21.6601C38.0664 21.6514 38.0562 21.6397 38.0494 21.6261C38.0426 21.6125 38.0393 21.5974 38.0399 21.5822V10.591C38.0399 8.83714 41.1125 9.2074 41.8205 9.29185C41.8356 9.29274 41.8506 9.29054 41.8648 9.28538C41.879 9.28023 41.8919 9.27224 41.9029 9.2619C41.9138 9.25155 41.9225 9.23908 41.9285 9.22524C41.9344 9.2114 41.9375 9.19649 41.9375 9.18142V3.56243C41.9375 3.53486 41.9265 3.50843 41.907 3.48894C41.8875 3.46944 41.8611 3.4585 41.8335 3.4585H23.2032C23.1756 3.4585 23.1492 3.46944 23.1297 3.48894C23.1102 3.50843 23.0992 3.53486 23.0992 3.56243V8.55781C23.0992 8.57061 23.1017 8.58328 23.1066 8.5951C23.1115 8.60692 23.1187 8.61766 23.1278 8.62671C23.1368 8.63576 23.1475 8.64294 23.1594 8.64783C23.1712 8.65273 23.1839 8.65525 23.1967 8.65525C24.3529 8.7462 26.0094 9.77255 26.3017 9.95444C26.3165 9.96444 26.3284 9.97805 26.3363 9.99397C26.3443 10.0099 26.348 10.0276 26.3472 10.0454V15.0797C26.3472 15.1073 26.3362 15.1337 26.3168 15.1532C26.2973 15.1727 26.2708 15.1837 26.2433 15.1837C22.6965 15.2356 17.7401 17.8795 16.7527 18.3602C16.7365 18.3681 16.7186 18.3716 16.7007 18.3705C16.6827 18.3694 16.6654 18.3636 16.6504 18.3538C16.6353 18.344 16.6231 18.3305 16.6148 18.3145C16.6066 18.2985 16.6026 18.2807 16.6033 18.2628V11.3186C16.5996 11.2993 16.5996 11.2794 16.6033 11.2601C17.2074 10.1363 19.7798 9.2074 20.3709 9.31134C20.3862 9.3133 20.4017 9.31185 20.4163 9.30709C20.431 9.30233 20.4444 9.29438 20.4555 9.28381C20.4667 9.27325 20.4754 9.26033 20.481 9.24599C20.4866 9.23166 20.4889 9.21626 20.4879 9.20091V3.58841C20.4879 3.56085 20.4769 3.53441 20.4574 3.51492C20.4379 3.49543 20.4115 3.48448 20.3839 3.48448H1.73406C1.70649 3.48448 1.68006 3.49543 1.66057 3.51492C1.64107 3.53441 1.63012 3.56085 1.63012 3.58841V9.23339C1.63012 9.25923 1.64039 9.28402 1.65866 9.30229C1.67694 9.32056 1.70172 9.33083 1.72756 9.33083C2.88384 9.42177 4.54031 10.4481 4.83262 10.63C4.84736 10.64 4.85928 10.6536 4.86724 10.6695C4.8752 10.6855 4.87894 10.7032 4.8781 10.721V43.1032C4.8839 43.1245 4.8839 43.1469 4.8781 43.1682C3.72182 44.8377 1.64311 44.5648 1.12344 44.4674C1.10826 44.4645 1.09262 44.465 1.07766 44.4689C1.06271 44.4728 1.04881 44.48 1.03699 44.49C1.02516 44.4999 1.01571 44.5124 1.00931 44.5265C1.00292 44.5405 0.999742 44.5559 1.00002 44.5713V50.8334C1.00591 50.8563 1.01941 50.8765 1.0383 50.8906C1.0572 50.9048 1.08035 50.9121 1.10395 50.9114H19.7343C19.7619 50.9114 19.7883 50.9004 19.8078 50.8809C19.8273 50.8614 19.8383 50.835 19.8383 50.8074V45.1625C19.8383 45.1366 19.828 45.1118 19.8097 45.0936C19.7914 45.0753 19.7667 45.065 19.7408 45.065C18.5845 45.0066 16.9281 43.9802 16.6358 43.7983C16.621 43.7883 16.6091 43.7747 16.6011 43.7588C16.5932 43.7429 16.5894 43.7251 16.5903 43.7074V28.2275C16.5899 28.2107 16.5939 28.1941 16.6019 28.1793C16.6099 28.1645 16.6215 28.152 16.6358 28.1431C16.8241 28.0067 17.7011 27.526 20.4879 27.526C21.4897 27.5615 22.4721 27.8119 23.3687 28.2602C24.2653 28.7085 25.0551 29.3442 25.6846 30.1244C25.6911 30.1455 25.6911 30.1681 25.6846 30.1893V43.7398C25.6851 43.756 25.6819 43.772 25.6751 43.7867C25.6683 43.8013 25.6582 43.8142 25.6456 43.8243C25.0285 44.37 23.0148 44.4414 22.5406 44.4414C22.513 44.4414 22.4866 44.4524 22.4671 44.4718C22.4476 44.4913 22.4366 44.5178 22.4366 44.5453V50.8334C22.4366 50.861 22.4476 50.8874 22.4671 50.9069C22.4866 50.9264 22.513 50.9374 22.5406 50.9374H41.1774C41.205 50.9374 41.2314 50.9264 41.2509 50.9069C41.2704 50.8874 41.2814 50.861 41.2814 50.8334V45.2859C41.2835 45.2682 41.2807 45.2502 41.2733 45.234C41.266 45.2177 41.2543 45.2038 41.2395 45.1937C41.2248 45.1837 41.2076 45.1779 41.1897 45.1769C41.1719 45.176 41.1542 45.18 41.1385 45.1884C40.3395 45.5522 38.4816 44.6168 38.0334 44.4414ZM38.0334 44.4414C38.0334 44.4869 37.9879 44.4414 38.0334 44.4414Z" stroke="#B9C4AE" stroke-miterlimit="10"/>
<path d="M67.3925 0H70.6973V3.74246H74.3084V0H77.6278V10.6948H74.3084V6.36875H70.6973V10.6948H67.3925V0Z" fill="#B9C4AE"/>
<path d="M79.2619 6.84295C79.2619 5.66111 79.6607 4.68841 80.4583 3.92485C81.2559 3.15641 82.3332 2.7722 83.6901 2.7722C85.2416 2.7722 86.4137 3.22207 87.2064 4.12182C87.8435 4.84648 88.1621 5.73893 88.1621 6.79917C88.1621 7.99073 87.7657 8.9683 86.973 9.73187C86.1851 10.4906 85.0932 10.8699 83.6974 10.8699C82.4523 10.8699 81.4456 10.5538 80.6772 9.92154C79.7337 9.13852 79.2619 8.11232 79.2619 6.84295ZM82.2384 6.83565C82.2384 7.52627 82.377 8.03694 82.6542 8.36765C82.9363 8.69837 83.2889 8.86373 83.712 8.86373C84.14 8.86373 84.4902 8.7008 84.7625 8.37495C85.0397 8.04909 85.1783 7.52627 85.1783 6.80647C85.1783 6.13531 85.0397 5.6368 84.7625 5.31094C84.4853 4.98022 84.1424 4.81487 83.7339 4.81487C83.301 4.81487 82.9436 4.98266 82.6615 5.31824C82.3794 5.64896 82.2384 6.15476 82.2384 6.83565Z" fill="#B9C4AE"/>
<path d="M88.4393 2.94728H91.3136L92.5611 7.8278L94.1369 2.94728H96.8143L98.4484 7.8278L99.6959 2.94728H102.548L99.6959 10.6948H97.055L95.4865 6.03317L93.9691 10.6948H91.3136L88.4393 2.94728Z" fill="#B9C4AE"/>
<path d="M105.955 5.45685L103.117 5.15774C103.224 4.66167 103.378 4.27259 103.577 3.9905C103.781 3.70356 104.073 3.45552 104.452 3.24639C104.725 3.09562 105.099 2.97889 105.576 2.89621C106.052 2.81354 106.568 2.7722 107.122 2.7722C108.012 2.7722 108.727 2.82326 109.267 2.9254C109.807 3.02267 110.257 3.22936 110.617 3.54549C110.87 3.76435 111.069 4.07561 111.215 4.47928C111.361 4.87809 111.434 5.25988 111.434 5.62464V9.04611C111.434 9.41087 111.456 9.69782 111.5 9.90695C111.548 10.1112 111.65 10.3738 111.806 10.6948H109.019C108.907 10.4954 108.834 10.3447 108.8 10.2425C108.766 10.1355 108.732 9.97018 108.698 9.74646C108.309 10.1209 107.923 10.3884 107.538 10.5489C107.013 10.7629 106.403 10.8699 105.707 10.8699C104.783 10.8699 104.08 10.6559 103.599 10.2279C103.122 9.79995 102.884 9.27226 102.884 8.64487C102.884 8.05639 103.057 7.57247 103.402 7.19312C103.747 6.81376 104.384 6.53168 105.313 6.34687C106.427 6.12315 107.149 5.96752 107.48 5.87997C107.811 5.78757 108.161 5.66841 108.53 5.52251C108.53 5.15774 108.455 4.90241 108.304 4.7565C108.154 4.6106 107.888 4.53765 107.509 4.53765C107.023 4.53765 106.658 4.61546 106.415 4.77109C106.225 4.89268 106.072 5.12127 105.955 5.45685ZM108.53 7.01803C108.122 7.16394 107.696 7.29282 107.254 7.40468C106.651 7.56518 106.269 7.72324 106.108 7.87887C105.943 8.03937 105.86 8.22175 105.86 8.42602C105.86 8.65946 105.941 8.85157 106.101 9.00234C106.266 9.14825 106.507 9.2212 106.823 9.2212C107.154 9.2212 107.46 9.14095 107.743 8.98045C108.029 8.81996 108.231 8.62542 108.348 8.39683C108.47 8.16339 108.53 7.86185 108.53 7.49222V7.01803Z" fill="#B9C4AE"/>
<path d="M113.243 2.94728H116.023V4.21666C116.29 3.66708 116.565 3.29016 116.847 3.08589C117.134 2.87676 117.487 2.7722 117.905 2.7722C118.343 2.7722 118.822 2.90837 119.342 3.18073L118.423 5.29635C118.073 5.15045 117.795 5.07749 117.591 5.07749C117.202 5.07749 116.901 5.23799 116.687 5.55898C116.38 6.01129 116.227 6.85754 116.227 8.09773V10.6948H113.243V2.94728Z" fill="#B9C4AE"/>
<path d="M128.388 0V10.6948H125.609V9.54948C125.22 10.0358 124.865 10.3641 124.544 10.5343C124.116 10.7581 123.639 10.8699 123.114 10.8699C122.058 10.8699 121.251 10.4687 120.692 9.66621C120.137 8.86373 119.86 7.8886 119.86 6.74081C119.86 5.45685 120.166 4.47442 120.779 3.79353C121.397 3.11264 122.18 2.7722 123.128 2.7722C123.59 2.7722 124.009 2.85001 124.383 3.00564C124.762 3.16128 125.098 3.39472 125.39 3.70599V0H128.388ZM125.412 6.79917C125.412 6.19124 125.283 5.73893 125.025 5.44226C124.767 5.14072 124.441 4.98995 124.047 4.98995C123.702 4.98995 123.413 5.13343 123.179 5.42037C122.946 5.70732 122.829 6.1888 122.829 6.86483C122.829 7.49709 122.948 7.96155 123.187 8.25822C123.43 8.55003 123.729 8.69594 124.084 8.69594C124.463 8.69594 124.779 8.5476 125.032 8.25093C125.285 7.95426 125.412 7.47034 125.412 6.79917Z" fill="#B9C4AE"/>
<path d="M67.3998 20.787H70.4857L74.5127 26.7035V20.787H77.6278V31.4819H74.5127L70.5076 25.6092V31.4819H67.3998V20.787Z" fill="#B9C4AE"/>
<path d="M87.79 31.4819H85.0178V30.2271C84.6044 30.7426 84.1862 31.1098 83.7631 31.3287C83.3448 31.5475 82.8293 31.6569 82.2165 31.6569C81.3994 31.6569 80.7574 31.4138 80.2905 30.9274C79.8285 30.4362 79.5975 29.6824 79.5975 28.6659V23.7343H82.5812V27.9947C82.5812 28.4811 82.6712 28.8264 82.8512 29.0307C83.0311 29.2349 83.284 29.3371 83.6099 29.3371C83.9649 29.3371 84.2543 29.2009 84.478 28.9285C84.7066 28.6562 84.8209 28.1674 84.8209 27.4622V23.7343H87.79V31.4819Z" fill="#B9C4AE"/>
<path d="M89.6211 23.7343H92.4006V25.0037C92.6681 24.4541 92.9429 24.0772 93.225 23.8729C93.5119 23.6638 93.8646 23.5592 94.2828 23.5592C94.7205 23.5592 95.1996 23.6954 95.72 23.9678L94.8008 26.0834C94.4506 25.9375 94.1734 25.8645 93.9691 25.8645C93.58 25.8645 93.2785 26.025 93.0645 26.346C92.7581 26.7983 92.6049 27.6446 92.6049 28.8848V31.4819H89.6211V23.7343Z" fill="#B9C4AE"/>
<path d="M96.0847 29.3371L99.032 29.0598C99.1536 29.41 99.3238 29.6605 99.5427 29.8113C99.7615 29.962 100.053 30.0374 100.418 30.0374C100.817 30.0374 101.126 29.9523 101.345 29.7821C101.515 29.6556 101.6 29.4976 101.6 29.3079C101.6 29.0939 101.488 28.9285 101.264 28.8118C101.104 28.7291 100.678 28.627 99.9877 28.5054C98.9566 28.3255 98.2393 28.1601 97.8356 28.0093C97.4368 27.8537 97.0988 27.5935 96.8216 27.2287C96.5492 26.864 96.413 26.4481 96.413 25.9812C96.413 25.4706 96.5614 25.0304 96.858 24.6608C97.1547 24.2912 97.5632 24.0164 98.0836 23.8364C98.604 23.6516 99.3019 23.5592 100.177 23.5592C101.101 23.5592 101.782 23.6297 102.22 23.7708C102.663 23.9118 103.03 24.1307 103.322 24.4274C103.618 24.724 103.864 25.1253 104.058 25.6311L101.242 25.9083C101.17 25.6603 101.048 25.4779 100.878 25.3611C100.644 25.2055 100.362 25.1277 100.031 25.1277C99.6959 25.1277 99.4503 25.1885 99.2947 25.3101C99.1439 25.4268 99.0685 25.5703 99.0685 25.7405C99.0685 25.9302 99.1658 26.0737 99.3603 26.1709C99.5548 26.2682 99.978 26.3557 100.63 26.4335C101.617 26.5454 102.351 26.701 102.833 26.9004C103.314 27.0998 103.682 27.3844 103.934 27.754C104.192 28.1236 104.321 28.5297 104.321 28.9723C104.321 29.4197 104.185 29.855 103.913 30.2781C103.645 30.7013 103.219 31.0393 102.636 31.2922C102.057 31.5402 101.267 31.6642 100.265 31.6642C98.8496 31.6642 97.8405 31.4624 97.2374 31.0587C96.6392 30.6551 96.255 30.0812 96.0847 29.3371Z" fill="#B9C4AE"/>
<path d="M114.345 28.3449H108.392C108.445 28.8215 108.574 29.1766 108.778 29.41C109.065 29.7456 109.44 29.9134 109.902 29.9134C110.194 29.9134 110.471 29.8404 110.734 29.6945C110.894 29.6021 111.067 29.4392 111.252 29.2057L114.177 29.4757C113.73 30.2538 113.19 30.8131 112.557 31.1536C111.925 31.4892 111.018 31.6569 109.836 31.6569C108.81 31.6569 108.003 31.5135 107.414 31.2265C106.826 30.9347 106.337 30.4751 105.948 29.8477C105.564 29.2155 105.372 28.4738 105.372 27.6227C105.372 26.4117 105.758 25.4317 106.532 24.6827C107.31 23.9337 108.382 23.5592 109.749 23.5592C110.858 23.5592 111.733 23.727 112.375 24.0626C113.017 24.3982 113.506 24.8845 113.841 25.5216C114.177 26.1588 114.345 26.988 114.345 28.0093V28.3449ZM111.325 26.9223C111.266 26.3484 111.111 25.9375 110.858 25.6894C110.61 25.4414 110.281 25.3174 109.873 25.3174C109.401 25.3174 109.024 25.5046 108.742 25.8791C108.562 26.1126 108.448 26.4603 108.399 26.9223H111.325Z" fill="#B9C4AE"/>
<path d="M115.738 23.7343H118.518V25.0037C118.785 24.4541 119.06 24.0772 119.342 23.8729C119.629 23.6638 119.982 23.5592 120.4 23.5592C120.838 23.5592 121.317 23.6954 121.837 23.9678L120.918 26.0834C120.568 25.9375 120.29 25.8645 120.086 25.8645C119.697 25.8645 119.395 26.025 119.182 26.346C118.875 26.7983 118.722 27.6446 118.722 28.8848V31.4819H115.738V23.7343Z" fill="#B9C4AE"/>
<path d="M122.457 20.787H125.426V22.8078H122.457V20.787ZM122.457 23.7343H125.426V31.4819H122.457V23.7343Z" fill="#B9C4AE"/>
<path d="M135.924 28.3449H129.971C130.025 28.8215 130.154 29.1766 130.358 29.41C130.645 29.7456 131.019 29.9134 131.481 29.9134C131.773 29.9134 132.05 29.8404 132.313 29.6945C132.473 29.6021 132.646 29.4392 132.831 29.2057L135.756 29.4757C135.309 30.2538 134.769 30.8131 134.137 31.1536C133.505 31.4892 132.597 31.6569 131.416 31.6569C130.389 31.6569 129.582 31.5135 128.994 31.2265C128.405 30.9347 127.916 30.4751 127.527 29.8477C127.143 29.2155 126.951 28.4738 126.951 27.6227C126.951 26.4117 127.338 25.4317 128.111 24.6827C128.889 23.9337 129.961 23.5592 131.328 23.5592C132.437 23.5592 133.312 23.727 133.954 24.0626C134.596 24.3982 135.085 24.8845 135.421 25.5216C135.756 26.1588 135.924 26.988 135.924 28.0093V28.3449ZM132.904 26.9223C132.846 26.3484 132.69 25.9375 132.437 25.6894C132.189 25.4414 131.861 25.3174 131.452 25.3174C130.98 25.3174 130.603 25.5046 130.321 25.8791C130.141 26.1126 130.027 26.4603 129.978 26.9223H132.904Z" fill="#B9C4AE"/>
<path d="M136.763 29.3371L139.71 29.0598C139.832 29.41 140.002 29.6605 140.221 29.8113C140.44 29.962 140.732 30.0374 141.096 30.0374C141.495 30.0374 141.804 29.9523 142.023 29.7821C142.193 29.6556 142.278 29.4976 142.278 29.3079C142.278 29.0939 142.166 28.9285 141.943 28.8118C141.782 28.7291 141.357 28.627 140.666 28.5054C139.635 28.3255 138.918 28.1601 138.514 28.0093C138.115 27.8537 137.777 27.5935 137.5 27.2287C137.228 26.864 137.091 26.4481 137.091 25.9812C137.091 25.4706 137.24 25.0304 137.536 24.6608C137.833 24.2912 138.242 24.0164 138.762 23.8364C139.282 23.6516 139.98 23.5592 140.856 23.5592C141.78 23.5592 142.461 23.6297 142.898 23.7708C143.341 23.9118 143.708 24.1307 144 24.4274C144.297 24.724 144.542 25.1253 144.737 25.6311L141.921 25.9083C141.848 25.6603 141.726 25.4779 141.556 25.3611C141.323 25.2055 141.041 25.1277 140.71 25.1277C140.374 25.1277 140.129 25.1885 139.973 25.3101C139.822 25.4268 139.747 25.5703 139.747 25.7405C139.747 25.9302 139.844 26.0737 140.039 26.1709C140.233 26.2682 140.656 26.3557 141.308 26.4335C142.295 26.5454 143.03 26.701 143.511 26.9004C143.993 27.0998 144.36 27.3844 144.613 27.754C144.871 28.1236 144.999 28.5297 144.999 28.9723C144.999 29.4197 144.863 29.855 144.591 30.2781C144.323 30.7013 143.898 31.0393 143.314 31.2922C142.735 31.5402 141.945 31.6642 140.943 31.6642C139.528 31.6642 138.519 31.4624 137.916 31.0587C137.317 30.6551 136.933 30.0812 136.763 29.3371Z" fill="#B9C4AE"/>
<path d="M67.3779 41.5741H70.6827V49.6353H75.8404V52.2689H67.3779V41.5741Z" fill="#B9C4AE"/>
<path d="M80.7282 41.5741V44.5213H82.3624V46.688H80.7282V49.4383C80.7282 49.769 80.7599 49.9879 80.8231 50.0949C80.9203 50.2603 81.0906 50.3429 81.3337 50.3429C81.5526 50.3429 81.859 50.2797 82.2529 50.1533L82.4718 52.2032C81.7374 52.3637 81.0517 52.444 80.4145 52.444C79.6753 52.444 79.1306 52.3491 78.7804 52.1595C78.4302 51.9698 78.17 51.6828 77.9998 51.2986C77.8345 50.9095 77.7518 50.2821 77.7518 49.4164V46.688H76.6575V44.5213H77.7518V43.0988L80.7282 41.5741Z" fill="#B9C4AE"/>
<path d="M91.941 41.5741V52.2689H89.1615V51.1235C88.7725 51.6099 88.4174 51.9382 88.0964 52.1084C87.6685 52.3321 87.1918 52.444 86.6666 52.444C85.6112 52.444 84.8039 52.0427 84.2445 51.2403C83.6901 50.4378 83.4129 49.4626 83.4129 48.3149C83.4129 47.0309 83.7193 46.0485 84.3321 45.3676C84.9498 44.6867 85.7328 44.3462 86.6812 44.3462C87.1432 44.3462 87.5615 44.4241 87.9359 44.5797C88.3153 44.7353 88.6509 44.9688 88.9427 45.28V41.5741H91.941ZM88.9646 48.3732C88.9646 47.7653 88.8357 47.313 88.5779 47.0163C88.3202 46.7148 87.9943 46.564 87.6004 46.564C87.2551 46.564 86.9657 46.7075 86.7322 46.9944C86.4988 47.2814 86.3821 47.7629 86.3821 48.4389C86.3821 49.0711 86.5012 49.5356 86.7395 49.8323C86.9827 50.1241 87.2818 50.27 87.6368 50.27C88.0162 50.27 88.3323 50.1217 88.5852 49.825C88.8381 49.5283 88.9646 49.0444 88.9646 48.3732Z" fill="#B9C4AE"/>
</svg>
