<svg width="96" height="48" viewBox="0 0 96 48" fill="none" xmlns="http://www.w3.org/2000/svg">
<path d="M0 0H6.58105C7.88379 0 8.85335 0.0561523 9.48975 0.168457C10.1336 0.273275 10.7064 0.497884 11.208 0.842285C11.7171 1.18669 12.1401 1.64714 12.4771 2.22363C12.814 2.79264 12.9824 3.43278 12.9824 4.14404C12.9824 4.9152 12.7728 5.62272 12.3535 6.2666C11.9417 6.91048 11.3802 7.39339 10.6689 7.71533C11.6722 8.00732 12.4434 8.50521 12.9824 9.20898C13.5215 9.91276 13.791 10.7401 13.791 11.6909C13.791 12.4396 13.6151 13.1696 13.2632 13.8809C12.9188 14.5846 12.4434 15.1499 11.8369 15.5767C11.238 15.9959 10.4967 16.2542 9.61328 16.3516C9.05925 16.4115 7.72282 16.4489 5.604 16.4639H0V0ZM3.32422 2.74023V6.54736H5.50293C6.79818 6.54736 7.60303 6.52865 7.91748 6.49121C8.48649 6.42383 8.93197 6.22917 9.25391 5.90723C9.58333 5.5778 9.74805 5.1473 9.74805 4.61572C9.74805 4.10661 9.60579 3.69482 9.32129 3.38037C9.04427 3.05843 8.62874 2.86377 8.07471 2.79639C7.74528 2.75895 6.79818 2.74023 5.2334 2.74023H3.32422ZM3.32422 9.2876V13.6899H6.40137C7.59928 13.6899 8.35921 13.6562 8.68115 13.5889C9.17529 13.499 9.57585 13.2819 9.88281 12.9375C10.1973 12.5856 10.3545 12.1177 10.3545 11.5337C10.3545 11.0396 10.2347 10.6203 9.99512 10.2759C9.75553 9.93148 9.40739 9.68066 8.95068 9.52344C8.50146 9.36621 7.52067 9.2876 6.0083 9.2876H3.32422Z" fill="#B9C4AE"/>
<path d="M15.8574 10.332C15.8574 9.28385 16.1157 8.26937 16.6323 7.28857C17.1489 6.30778 17.8789 5.55908 18.8223 5.04248C19.7731 4.52588 20.8325 4.26758 22.0005 4.26758C23.8048 4.26758 25.2835 4.85531 26.4365 6.03076C27.5895 7.19873 28.166 8.67741 28.166 10.4668C28.166 12.2712 27.582 13.7686 26.4141 14.959C25.2536 16.1419 23.7899 16.7334 22.0229 16.7334C20.9298 16.7334 19.8854 16.4863 18.8896 15.9922C17.9014 15.498 17.1489 14.7756 16.6323 13.8247C16.1157 12.8664 15.8574 11.7021 15.8574 10.332ZM19.0918 10.5005C19.0918 11.6834 19.3726 12.5894 19.9341 13.2183C20.4956 13.8472 21.1882 14.1616 22.0117 14.1616C22.8353 14.1616 23.5241 13.8472 24.0781 13.2183C24.6396 12.5894 24.9204 11.6759 24.9204 10.478C24.9204 9.31006 24.6396 8.41162 24.0781 7.78271C23.5241 7.15381 22.8353 6.83936 22.0117 6.83936C21.1882 6.83936 20.4956 7.15381 19.9341 7.78271C19.3726 8.41162 19.0918 9.31755 19.0918 10.5005Z" fill="#B9C4AE"/>
<path d="M29.1318 16.4639L33.4331 10.3208L29.3115 4.53711H33.1636L35.2749 7.81641L37.4985 4.53711H41.2046L37.1616 10.186L41.5752 16.4639H37.7007L35.2749 12.769L32.8267 16.4639H29.1318Z" fill="#B9C4AE"/>
<path d="M48.9199 4.53711V7.05273H46.7637V11.8594C46.7637 12.8327 46.7824 13.4017 46.8198 13.5664C46.8647 13.7236 46.9583 13.8547 47.1006 13.9595C47.2503 14.0643 47.43 14.1167 47.6396 14.1167C47.9316 14.1167 48.3547 14.0156 48.9087 13.8135L49.1782 16.2617C48.4445 16.5762 47.6134 16.7334 46.6851 16.7334C46.116 16.7334 45.6032 16.6398 45.1465 16.4526C44.6898 16.258 44.3529 16.0109 44.1357 15.7114C43.9261 15.4045 43.7801 14.9927 43.6978 14.4761C43.6304 14.1092 43.5967 13.368 43.5967 12.2524V7.05273H42.1479V4.53711H43.5967V2.16748L46.7637 0.325684V4.53711H48.9199Z" fill="#B9C4AE"/>
<path d="M54.1309 16.4639H50.9751V4.53711H53.9062V6.23291C54.4079 5.4318 54.8571 4.90397 55.2539 4.64941C55.6582 4.39486 56.1149 4.26758 56.624 4.26758C57.3428 4.26758 58.0353 4.46598 58.7017 4.86279L57.7246 7.61426C57.193 7.26986 56.6989 7.09766 56.2422 7.09766C55.8005 7.09766 55.4261 7.22119 55.1191 7.46826C54.8122 7.70785 54.5688 8.14583 54.3892 8.78223C54.217 9.41862 54.1309 10.7513 54.1309 12.7803V16.4639Z" fill="#B9C4AE"/>
<path d="M66.9785 12.668L70.123 13.1958C69.7188 14.3488 69.0786 15.2285 68.2026 15.835C67.3341 16.4339 66.2448 16.7334 64.9346 16.7334C62.8607 16.7334 61.3258 16.0558 60.3301 14.7007C59.5439 13.6151 59.1509 12.245 59.1509 10.5903C59.1509 8.61377 59.6675 7.06771 60.7007 5.95215C61.7339 4.8291 63.0404 4.26758 64.6201 4.26758C66.3945 4.26758 67.7946 4.85531 68.8203 6.03076C69.846 7.19873 70.3364 8.99186 70.2915 11.4102H62.3853C62.4077 12.346 62.6623 13.076 63.1489 13.6001C63.6356 14.1167 64.242 14.375 64.9683 14.375C65.4624 14.375 65.8779 14.2402 66.2148 13.9707C66.5518 13.7012 66.8063 13.2669 66.9785 12.668ZM67.1582 9.47852C67.1357 8.5651 66.8999 7.87256 66.4507 7.40088C66.0015 6.92171 65.4549 6.68213 64.811 6.68213C64.1222 6.68213 63.5532 6.93294 63.104 7.43457C62.6548 7.9362 62.4339 8.61751 62.4414 9.47852H67.1582Z" fill="#B9C4AE"/>
<path d="M79.7812 12.668L82.9258 13.1958C82.5215 14.3488 81.8813 15.2285 81.0054 15.835C80.1369 16.4339 79.0475 16.7334 77.7373 16.7334C75.6634 16.7334 74.1286 16.0558 73.1328 14.7007C72.3467 13.6151 71.9536 12.245 71.9536 10.5903C71.9536 8.61377 72.4702 7.06771 73.5034 5.95215C74.5366 4.8291 75.8431 4.26758 77.4229 4.26758C79.1973 4.26758 80.5973 4.85531 81.623 6.03076C82.6488 7.19873 83.1392 8.99186 83.0942 11.4102H75.188C75.2104 12.346 75.465 13.076 75.9517 13.6001C76.4383 14.1167 77.0448 14.375 77.771 14.375C78.2651 14.375 78.6807 14.2402 79.0176 13.9707C79.3545 13.7012 79.609 13.2669 79.7812 12.668ZM79.9609 9.47852C79.9385 8.5651 79.7026 7.87256 79.2534 7.40088C78.8042 6.92171 78.2577 6.68213 77.6138 6.68213C76.925 6.68213 76.356 6.93294 75.9067 7.43457C75.4575 7.9362 75.2367 8.61751 75.2441 9.47852H79.9609Z" fill="#B9C4AE"/>
<path d="M84.5654 13.061L87.7324 12.5781C87.8672 13.1921 88.1405 13.66 88.5522 13.9819C88.964 14.2964 89.5405 14.4536 90.2817 14.4536C91.0978 14.4536 91.7118 14.3039 92.1235 14.0044C92.4006 13.7948 92.5391 13.514 92.5391 13.1621C92.5391 12.9225 92.4642 12.7241 92.3145 12.5669C92.1572 12.4172 91.8053 12.2786 91.2588 12.1514C88.7132 11.5898 87.0998 11.077 86.4185 10.6128C85.4751 9.96891 85.0034 9.07422 85.0034 7.92871C85.0034 6.89551 85.4115 6.02702 86.2275 5.32324C87.0436 4.61947 88.3089 4.26758 90.0234 4.26758C91.6556 4.26758 92.8685 4.53337 93.6621 5.06494C94.4557 5.59652 95.0023 6.38265 95.3018 7.42334L92.3257 7.97363C92.1984 7.50944 91.9551 7.15381 91.5957 6.90674C91.2438 6.65967 90.7384 6.53613 90.0796 6.53613C89.2485 6.53613 88.6533 6.65218 88.2939 6.88428C88.0544 7.04899 87.9346 7.26237 87.9346 7.52441C87.9346 7.74902 88.0394 7.93994 88.249 8.09717C88.5335 8.3068 89.5143 8.60254 91.1914 8.98438C92.876 9.36621 94.0514 9.83415 94.7178 10.3882C95.3766 10.9497 95.7061 11.7321 95.7061 12.7354C95.7061 13.8285 95.2494 14.7681 94.3359 15.5542C93.4225 16.3403 92.0711 16.7334 90.2817 16.7334C88.6571 16.7334 87.3693 16.404 86.4185 15.7451C85.4751 15.0863 84.8574 14.1916 84.5654 13.061Z" fill="#B9C4AE"/>
<path d="M6.62598 42.4639V26H9.86035L16.5986 36.9946V26H19.687V42.4639H16.3516L9.71436 31.7275V42.4639H6.62598Z" fill="#B9C4AE"/>
<path d="M31.041 42.4639V40.6782C30.6068 41.3146 30.034 41.8162 29.3228 42.1831C28.619 42.55 27.874 42.7334 27.0879 42.7334C26.2868 42.7334 25.568 42.5575 24.9316 42.2056C24.2952 41.8537 23.8348 41.3595 23.5503 40.7231C23.2658 40.0868 23.1235 39.207 23.1235 38.084V30.5371H26.2793V36.0176C26.2793 37.6947 26.3354 38.7241 26.4478 39.106C26.5675 39.4803 26.7809 39.7798 27.0879 40.0044C27.3949 40.2215 27.7842 40.3301 28.2559 40.3301C28.7949 40.3301 29.2778 40.1841 29.7046 39.8921C30.1313 39.5926 30.4233 39.2257 30.5806 38.7915C30.7378 38.3498 30.8164 37.2754 30.8164 35.5684V30.5371H33.9722V42.4639H31.041Z" fill="#B9C4AE"/>
<path d="M40.2725 42.4639H37.1167V30.5371H40.0479V32.2329C40.5495 31.4318 40.9987 30.904 41.3955 30.6494C41.7998 30.3949 42.2565 30.2676 42.7656 30.2676C43.4844 30.2676 44.1769 30.466 44.8433 30.8628L43.8662 33.6143C43.3346 33.2699 42.8405 33.0977 42.3838 33.0977C41.9421 33.0977 41.5677 33.2212 41.2607 33.4683C40.9538 33.7078 40.7104 34.1458 40.5308 34.7822C40.3586 35.4186 40.2725 36.7513 40.2725 38.7803V42.4639Z" fill="#B9C4AE"/>
<path d="M45.1016 39.061L48.2686 38.5781C48.4033 39.1921 48.6766 39.66 49.0884 39.9819C49.5002 40.2964 50.0767 40.4536 50.8179 40.4536C51.634 40.4536 52.2479 40.3039 52.6597 40.0044C52.9367 39.7948 53.0752 39.514 53.0752 39.1621C53.0752 38.9225 53.0003 38.7241 52.8506 38.5669C52.6934 38.4172 52.3415 38.2786 51.7949 38.1514C49.2493 37.5898 47.6359 37.077 46.9546 36.6128C46.0112 35.9689 45.5396 35.0742 45.5396 33.9287C45.5396 32.8955 45.9476 32.027 46.7637 31.3232C47.5798 30.6195 48.8451 30.2676 50.5596 30.2676C52.1917 30.2676 53.4046 30.5334 54.1982 31.0649C54.9919 31.5965 55.5384 32.3826 55.8379 33.4233L52.8618 33.9736C52.7345 33.5094 52.4912 33.1538 52.1318 32.9067C51.7799 32.6597 51.2746 32.5361 50.6157 32.5361C49.7847 32.5361 49.1895 32.6522 48.8301 32.8843C48.5905 33.049 48.4707 33.2624 48.4707 33.5244C48.4707 33.749 48.5755 33.9399 48.7852 34.0972C49.0697 34.3068 50.0505 34.6025 51.7275 34.9844C53.4121 35.3662 54.5876 35.8341 55.2539 36.3882C55.9128 36.9497 56.2422 37.7321 56.2422 38.7354C56.2422 39.8284 55.7855 40.7681 54.8721 41.5542C53.9587 42.3403 52.6073 42.7334 50.8179 42.7334C49.1932 42.7334 47.9054 42.404 46.9546 41.7451C46.0112 41.0863 45.3936 40.1916 45.1016 39.061Z" fill="#B9C4AE"/>
<path d="M65.9229 38.668L69.0674 39.1958C68.6631 40.3488 68.0229 41.2285 67.147 41.835C66.2785 42.4339 65.1891 42.7334 63.8789 42.7334C61.805 42.7334 60.2702 42.0558 59.2744 40.7007C58.4883 39.6151 58.0952 38.245 58.0952 36.5903C58.0952 34.6138 58.6118 33.0677 59.645 31.9521C60.6782 30.8291 61.9847 30.2676 63.5645 30.2676C65.3389 30.2676 66.7389 30.8553 67.7646 32.0308C68.7904 33.1987 69.2808 34.9919 69.2358 37.4102H61.3296C61.3521 38.346 61.6066 39.076 62.0933 39.6001C62.5799 40.1167 63.1864 40.375 63.9126 40.375C64.4067 40.375 64.8223 40.2402 65.1592 39.9707C65.4961 39.7012 65.7506 39.2669 65.9229 38.668ZM66.1025 35.4785C66.0801 34.5651 65.8442 33.8726 65.395 33.4009C64.9458 32.9217 64.3993 32.6821 63.7554 32.6821C63.0666 32.6821 62.4976 32.9329 62.0483 33.4346C61.5991 33.9362 61.3783 34.6175 61.3857 35.4785H66.1025Z" fill="#B9C4AE"/>
<path d="M74.8398 42.4639H71.6841V30.5371H74.6152V32.2329C75.1169 31.4318 75.5661 30.904 75.9629 30.6494C76.3672 30.3949 76.8239 30.2676 77.333 30.2676C78.0518 30.2676 78.7443 30.466 79.4106 30.8628L78.4336 33.6143C77.902 33.2699 77.4079 33.0977 76.9512 33.0977C76.5094 33.0977 76.1351 33.2212 75.8281 33.4683C75.5212 33.7078 75.2778 34.1458 75.0981 34.7822C74.9259 35.4186 74.8398 36.7513 74.8398 38.7803V42.4639Z" fill="#B9C4AE"/>
<path d="M79.2871 30.5371H82.645L85.4976 39.0049L88.2827 30.5371H91.5508L87.3394 42.0146L86.5869 44.0923C86.3099 44.7886 86.0441 45.3201 85.7896 45.687C85.5425 46.0539 85.2542 46.3496 84.9248 46.5742C84.6029 46.8063 84.2023 46.986 83.7231 47.1133C83.2515 47.2406 82.7161 47.3042 82.1172 47.3042C81.5107 47.3042 80.9155 47.2406 80.3315 47.1133L80.0508 44.6426C80.5449 44.7399 80.9904 44.7886 81.3872 44.7886C82.1209 44.7886 82.6637 44.5715 83.0156 44.1372C83.3675 43.7104 83.637 43.1639 83.8242 42.4976L79.2871 30.5371Z" fill="#B9C4AE"/>
<path d="M91.8765 42.4639V39.3081H95.0322V42.4639H91.8765Z" fill="#B9C4AE"/>
</svg>
