<svg width="43" height="51" viewBox="0 0 43 51" fill="none" xmlns="http://www.w3.org/2000/svg">
<path d="M1 15.7022C1 15.7022 8.35103 1.00018 21.2153 1.00018C34.0796 1.00018 41.4307 15.7022 41.4307 15.7022C41.4307 15.7022 34.0796 30.4043 21.2153 30.4043C8.35103 30.4043 1 15.7022 1 15.7022Z" stroke="white" stroke-width="2" stroke-linecap="round" stroke-linejoin="round"/>
<path d="M21.2154 21.2155C24.2603 21.2155 26.7287 18.7471 26.7287 15.7022C26.7287 12.6573 24.2603 10.189 21.2154 10.189C18.1705 10.189 15.7021 12.6573 15.7021 15.7022C15.7021 18.7471 18.1705 21.2155 21.2154 21.2155Z" stroke="white" stroke-width="2" stroke-linecap="round" stroke-linejoin="round"/>
<path d="M42.6569 50L0 50" stroke="white" stroke-width="2"/>
</svg>
